EX04/simulation/qsim/EX04.msim.vcd
$comment
	File created using the following command:
		vcd file EX04.msim.vcd -direction
$end
$date
	Wed Mar 15 16:42:58 2023
$end
$version
	ModelSim Version 10.5b
$end
$timescale
	1ps
$end

$scope module EX04_vlg_vec_tst $end
$var reg 1 ! A $end
$var reg 1 " B $end
$var reg 1 # C $end
$var reg 1 $ D $end
$var wire 1 % ANS $end

$scope module i1 $end
$var wire 1 & gnd $end
$var wire 1 ' vcc $end
$var wire 1 ( unknown $end
$var tri1 1 ) devclrn $end
$var tri1 1 * devpor $end
$var tri1 1 + devoe $end
$var wire 1 , ~QUARTUS_CREATED_GND~I_combout $end
$var wire 1 - ~QUARTUS_CREATED_UNVM~~busy $end
$var wire 1 . ~QUARTUS_CREATED_ADC1~~eoc $end
$var wire 1 / ~QUARTUS_CREATED_ADC2~~eoc $end
$var wire 1 0 ANS~output_o $end
$var wire 1 1 C~input_o $end
$var wire 1 2 D~input_o $end
$var wire 1 3 B~input_o $end
$var wire 1 4 A~input_o $end
$var wire 1 5 inst~0_combout $end
$upscope $end
$upscope $end
$enddefinitions $end
#0
$dumpvars
0!
0"
0#
0$
1%
0&
1'
x(
1)
1*
1+
0,
z-
z.
z/
10
01
02
03
04
15
$end
#10000
1$
12
#20000
1#
0$
02
11
05
00
0%
#30000
1$
12
#40000
1"
0#
0$
02
01
13
15
10
1%
#50000
1$
12
#60000
1#
0$
02
11
#70000
1$
12
05
00
0%
#80000
1!
0"
0#
0$
02
01
03
14
15
10
1%
#90000
1$
12
#100000
1#
0$
02
11
#110000
1$
12
05
00
0%
#120000
1"
0#
0$
02
01
13
15
10
1%
#130000
1$
12
#140000
1#
0$
02
11
#150000
1$
12
05
00
0%
#160000
0!
0"
0#
0$
02
01
03
04
15
10
1%
#170000
1$
12
#180000
1#
0$
02
11
05
00
0%
#190000
1$
12
#200000
1"
0#
0$
02
01
13
15
10
1%
#210000
1$
12
#220000
1#
0$
02
11
#230000
1$
12
05
00
0%
#240000
1!
0"
0#
0$
02
01
03
14
15
10
1%
#250000
1$
12
#260000
1#
0$
02
11
#270000
1$
12
05
00
0%
#280000
1"
0#
0$
02
01
13
15
10
1%
#290000
1$
12
#300000
1#
0$
02
11
#310000
1$
12
05
00
0%
#320000
0!
0"
0#
0$
02
01
03
04
15
10
1%
#330000
1$
12
#340000
1#
0$
02
11
05
00
0%
#350000
1$
12
#360000
1"
0#
0$
02
01
13
15
10
1%
#370000
1$
12
#380000
1#
0$
02
11
#390000
1$
12
05
00
0%
#400000
1!
0"
0#
0$
02
01
03
14
15
10
1%
#410000
1$
12
#420000
1#
0$
02
11
#430000
1$
12
05
00
0%
#440000
1"
0#
0$
02
01
13
15
10
1%
#450000
1$
12
#460000
1#
0$
02
11
#470000
1$
12
05
00
0%
#480000
0!
0"
0#
0$
02
01
03
04
15
10
1%
#490000
1$
12
#500000
1#
0$
02
11
05
00
0%
#510000
1$
12
#520000
1"
0#
0$
02
01
13
15
10
1%
#530000
1$
12
#540000
1#
0$
02
11
#550000
1$
12
05
00
0%
#560000
1!
0"
0#
0$
02
01
03
14
15
10
1%
#570000
1$
12
#580000
1#
0$
02
11
#590000
1$
12
05
00
0%
#600000
1"
0#
0$
02
01
13
15
10
1%
#610000
1$
12
#620000
1#
0$
02
11
#630000
1$
12
05
00
0%
#640000
0!
0"
0#
0$
02
01
03
04
15
10
1%
#650000
1$
12
#660000
1#
0$
02
11
05
00
0%
#670000
1$
12
#680000
1"
0#
0$
02
01
13
15
10
1%
#690000
1$
12
#700000
1#
0$
02
11
#710000
1$
12
05
00
0%
#720000
1!
0"
0#
0$
02
01
03
14
15
10
1%
#730000
1$
12
#740000
1#
0$
02
11
#750000
1$
12
05
00
0%
#760000
1"
0#
0$
02
01
13
15
10
1%
#770000
1$
12
#780000
1#
0$
02
11
#790000
1$
12
05
00
0%
#800000
0!
0"
0#
0$
02
01
03
04
15
10
1%
#810000
1$
12
#820000
1#
0$
02
11
05
00
0%
#830000
1$
12
#840000
1"
0#
0$
02
01
13
15
10
1%
#850000
1$
12
#860000
1#
0$
02
11
#870000
1$
12
05
00
0%
#880000
1!
0"
0#
0$
02
01
03
14
15
10
1%
#890000
1$
12
#900000
1#
0$
02
11
#910000
1$
12
05
00
0%
#920000
1"
0#
0$
02
01
13
15
10
1%
#930000
1$
12
#940000
1#
0$
02
11
#950000
1$
12
05
00
0%
#960000
0!
0"
0#
0$
02
01
03
04
15
10
1%
#970000
1$
12
#980000
1#
0$
02
11
05
00
0%
#990000
1$
12
