hw73/simulation/qsim/hw73.msim.vcd
$comment
	File created using the following command:
		vcd file hw73.msim.vcd -direction
$end
$date
	Wed Apr 26 17:16:45 2023
$end
$version
	ModelSim Version 10.5b
$end
$timescale
	1ps
$end

$scope module mux8_1_vhd_vec_tst $end
$var wire 1 ! A [7] $end
$var wire 1 " A [6] $end
$var wire 1 # A [5] $end
$var wire 1 $ A [4] $end
$var wire 1 % A [3] $end
$var wire 1 & A [2] $end
$var wire 1 ' A [1] $end
$var wire 1 ( A [0] $end
$var wire 1 ) S [2] $end
$var wire 1 * S [1] $end
$var wire 1 + S [0] $end
$var wire 1 , Y $end

$scope module i1 $end
$var wire 1 - gnd $end
$var wire 1 . vcc $end
$var wire 1 / unknown $end
$var wire 1 0 devoe $end
$var wire 1 1 devclrn $end
$var wire 1 2 devpor $end
$var wire 1 3 ww_devoe $end
$var wire 1 4 ww_devclrn $end
$var wire 1 5 ww_devpor $end
$var wire 1 6 ww_S [2] $end
$var wire 1 7 ww_S [1] $end
$var wire 1 8 ww_S [0] $end
$var wire 1 9 ww_A [7] $end
$var wire 1 : ww_A [6] $end
$var wire 1 ; ww_A [5] $end
$var wire 1 < ww_A [4] $end
$var wire 1 = ww_A [3] $end
$var wire 1 > ww_A [2] $end
$var wire 1 ? ww_A [1] $end
$var wire 1 @ ww_A [0] $end
$var wire 1 A ww_Y $end
$var wire 1 B \~QUARTUS_CREATED_ADC1~_CHSEL_bus\ [4] $end
$var wire 1 C \~QUARTUS_CREATED_ADC1~_CHSEL_bus\ [3] $end
$var wire 1 D \~QUARTUS_CREATED_ADC1~_CHSEL_bus\ [2] $end
$var wire 1 E \~QUARTUS_CREATED_ADC1~_CHSEL_bus\ [1] $end
$var wire 1 F \~QUARTUS_CREATED_ADC1~_CHSEL_bus\ [0] $end
$var wire 1 G \~QUARTUS_CREATED_ADC2~_CHSEL_bus\ [4] $end
$var wire 1 H \~QUARTUS_CREATED_ADC2~_CHSEL_bus\ [3] $end
$var wire 1 I \~QUARTUS_CREATED_ADC2~_CHSEL_bus\ [2] $end
$var wire 1 J \~QUARTUS_CREATED_ADC2~_CHSEL_bus\ [1] $end
$var wire 1 K \~QUARTUS_CREATED_ADC2~_CHSEL_bus\ [0] $end
$var wire 1 L \~QUARTUS_CREATED_GND~I_combout\ $end
$var wire 1 M \~QUARTUS_CREATED_UNVM~~busy\ $end
$var wire 1 N \~QUARTUS_CREATED_ADC1~~eoc\ $end
$var wire 1 O \~QUARTUS_CREATED_ADC2~~eoc\ $end
$var wire 1 P \Y~output_o\ $end
$var wire 1 Q \A[0]~input_o\ $end
$var wire 1 R \S[0]~input_o\ $end
$var wire 1 S \A[1]~input_o\ $end
$var wire 1 T \S[1]~input_o\ $end
$var wire 1 U \Mux0~2_combout\ $end
$var wire 1 V \A[3]~input_o\ $end
$var wire 1 W \A[2]~input_o\ $end
$var wire 1 X \Mux0~3_combout\ $end
$var wire 1 Y \A[5]~input_o\ $end
$var wire 1 Z \A[7]~input_o\ $end
$var wire 1 [ \A[4]~input_o\ $end
$var wire 1 \ \A[6]~input_o\ $end
$var wire 1 ] \Mux0~0_combout\ $end
$var wire 1 ^ \Mux0~1_combout\ $end
$var wire 1 _ \S[2]~input_o\ $end
$var wire 1 ` \Mux0~4_combout\ $end
$upscope $end
$upscope $end
$enddefinitions $end
#0
$dumpvars
0,
0-
1.
x/
10
11
12
13
14
15
0A
0L
zM
zN
zO
0P
0Q
0R
0S
0T
0U
0V
0W
0X
0Y
0Z
0[
0\
0]
0^
0_
0`
0!
0"
0#
0$
0%
0&
0'
0(
0)
0*
0+
06
07
08
09
0:
0;
0<
0=
0>
0?
0@
0B
0C
0D
0E
0F
0G
0H
0I
0J
0K
$end
#500
1(
1@
1Q
1U
1X
1`
1P
1A
1,
#1000
0(
0@
0Q
0U
0X
0`
0P
0A
0,
#1500
1(
1'
1@
1?
1S
1Q
1U
1X
1`
1P
1A
1,
#2000
0(
0@
0Q
0U
0X
0`
0P
0A
0,
#2500
1(
1@
1Q
1U
1X
1`
1P
1A
1,
#3000
0(
0'
0@
0?
0S
0Q
0U
0X
0`
0P
0A
0,
#3500
1(
1@
1Q
1U
1X
1`
1P
1A
1,
#3750
1&
1>
1W
#4000
0(
0@
0Q
0U
0X
0`
0P
0A
0,
#4500
1(
1'
1@
1?
1S
1Q
1U
1X
1`
1P
1A
1,
#5000
0(
0@
0Q
0U
0X
0`
0P
0A
0,
#5500
1(
1@
1Q
1U
1X
1`
1P
1A
1,
#6000
0(
0'
0@
0?
0S
0Q
0U
0X
0`
0P
0A
0,
#6500
1(
1@
1Q
1U
1X
1`
1P
1A
1,
#7000
0(
0@
0Q
0U
0X
0`
0P
0A
0,
#7500
1(
1'
0&
1%
1@
1?
0>
1=
1V
0W
1S
1Q
1U
1X
1`
1P
1A
1,
#8000
0(
0@
0Q
0U
0X
0`
0P
0A
0,
#8500
1(
1@
1Q
1U
1X
1`
1P
1A
1,
#9000
0(
0'
0@
0?
0S
0Q
0U
0X
0`
0P
0A
0,
#9500
1(
1@
1Q
1U
1X
1`
1P
1A
1,
#10000
0(
0@
0Q
0U
0X
0`
0P
0A
0,
#10500
1(
1'
1@
1?
1S
1Q
1U
1X
1`
1P
1A
1,
#11000
0(
0@
0Q
0U
0X
0`
0P
0A
0,
#11250
1&
1>
1W
#11500
1(
1@
1Q
1U
1X
1`
1P
1A
1,
#12000
0(
0'
0@
0?
0S
0Q
0U
0X
0`
0P
0A
0,
#12500
1(
1@
1Q
1U
1X
1`
1P
1A
1,
#13000
0(
0@
0Q
0U
0X
0`
0P
0A
0,
#13500
1(
1'
1@
1?
1S
1Q
1U
1X
1`
1P
1A
1,
#14000
0(
0@
0Q
0U
0X
0`
0P
0A
0,
#14500
1(
1@
1Q
1U
1X
1`
1P
1A
1,
#15000
0(
0'
0&
0%
1$
0@
0?
0>
0=
1<
1[
0V
0W
0S
0Q
0U
1]
1^
0X
0`
0P
0A
0,
#15500
1(
1@
1Q
1U
1X
1`
1P
1A
1,
#16000
0(
0@
0Q
0U
0X
0`
0P
0A
0,
#16500
1(
1'
1@
1?
1S
1Q
1U
1X
1`
1P
1A
1,
#17000
0(
0@
0Q
0U
0X
0`
0P
0A
0,
#17500
1(
1@
1Q
1U
1X
1`
1P
1A
1,
#18000
0(
0'
0@
0?
0S
0Q
0U
0X
0`
0P
0A
0,
#18500
1(
1@
1Q
1U
1X
1`
1P
1A
1,
#18750
1&
1>
1W
#19000
0(
0@
0Q
0U
0X
0`
0P
0A
0,
#19500
1(
1'
1@
1?
1S
1Q
1U
1X
1`
1P
1A
1,
#20000
0(
0@
0Q
0U
0X
0`
0P
0A
0,
#20500
1(
1@
1Q
1U
1X
1`
1P
1A
1,
#21000
0(
0'
0@
0?
0S
0Q
0U
0X
0`
0P
0A
0,
#21500
1(
1@
1Q
1U
1X
1`
1P
1A
1,
#22000
0(
0@
0Q
0U
0X
0`
0P
0A
0,
#22500
1(
1'
0&
1%
1@
1?
0>
1=
1V
0W
1S
1Q
1U
1X
1`
1P
1A
1,
#23000
0(
0@
0Q
0U
0X
0`
0P
0A
0,
#23500
1(
1@
1Q
1U
1X
1`
1P
1A
1,
#24000
0(
0'
0@
0?
0S
0Q
0U
0X
0`
0P
0A
0,
#24500
1(
1@
1Q
1U
1X
1`
1P
1A
1,
#25000
0(
0@
0Q
0U
0X
0`
0P
0A
0,
#25500
1(
1'
1@
1?
1S
1Q
1U
1X
1`
1P
1A
1,
#26000
0(
0@
0Q
0U
0X
0`
0P
0A
0,
#26250
1&
1>
1W
#26500
1(
1@
1Q
1U
1X
1`
1P
1A
1,
#27000
0(
0'
0@
0?
0S
0Q
0U
0X
0`
0P
0A
0,
#27500
1(
1@
1Q
1U
1X
1`
1P
1A
1,
#28000
0(
0@
0Q
0U
0X
0`
0P
0A
0,
#28500
1(
1'
1@
1?
1S
1Q
1U
1X
1`
1P
1A
1,
#29000
0(
0@
0Q
0U
0X
0`
0P
0A
0,
#29500
1(
1@
1Q
1U
1X
1`
1P
1A
1,
#30000
0(
0'
0&
0%
0$
1#
0@
0?
0>
0=
0<
1;
1Y
0[
0V
0W
0S
0Q
0U
0]
0^
0X
0`
0P
0A
0,
#30500
1(
1@
1Q
1U
1X
1`
1P
1A
1,
#31000
0(
0@
0Q
0U
0X
0`
0P
0A
0,
#31500
1(
1'
1@
1?
1S
1Q
1U
1X
1`
1P
1A
1,
#32000
0(
0@
0Q
0U
0X
0`
0P
0A
0,
#32500
1(
1@
1Q
1U
1X
1`
1P
1A
1,
#33000
0(
0'
0@
0?
0S
0Q
0U
0X
0`
0P
0A
0,
#33500
1(
1@
1Q
1U
1X
1`
1P
1A
1,
#33750
1&
1>
1W
#34000
0(
0@
0Q
0U
0X
0`
0P
0A
0,
#34500
1(
1'
1@
1?
1S
1Q
1U
1X
1`
1P
1A
1,
#35000
0(
0@
0Q
0U
0X
0`
0P
0A
0,
#35500
1(
1@
1Q
1U
1X
1`
1P
1A
1,
#36000
0(
0'
0@
0?
0S
0Q
0U
0X
0`
0P
0A
0,
#36500
1(
1@
1Q
1U
1X
1`
1P
1A
1,
#37000
0(
0@
0Q
0U
0X
0`
0P
0A
0,
#37500
1(
1'
0&
1%
1@
1?
0>
1=
1V
0W
1S
1Q
1U
1X
1`
1P
1A
1,
#38000
0(
0@
0Q
0U
0X
0`
0P
0A
0,
#38500
1(
1@
1Q
1U
1X
1`
1P
1A
1,
#39000
0(
0'
0@
0?
0S
0Q
0U
0X
0`
0P
0A
0,
#39500
1(
1@
1Q
1U
1X
1`
1P
1A
1,
#40000
0(
0@
0Q
0U
0X
0`
0P
0A
0,
#40500
1(
1'
1@
1?
1S
1Q
1U
1X
1`
1P
1A
1,
#41000
0(
0@
0Q
0U
0X
0`
0P
0A
0,
#41250
1&
1>
1W
#41500
1(
1@
1Q
1U
1X
1`
1P
1A
1,
#42000
0(
0'
0@
0?
0S
0Q
0U
0X
0`
0P
0A
0,
#42500
1(
1@
1Q
1U
1X
1`
1P
1A
1,
#43000
0(
0@
0Q
0U
0X
0`
0P
0A
0,
#43500
1(
1'
1@
1?
1S
1Q
1U
1X
1`
1P
1A
1,
#44000
0(
0@
0Q
0U
0X
0`
0P
0A
0,
#44500
1(
1@
1Q
1U
1X
1`
1P
1A
1,
#45000
0(
0'
0&
0%
1$
0@
0?
0>
0=
1<
1[
0V
0W
0S
0Q
0U
1]
1^
0X
0`
0P
0A
0,
#45500
1(
1@
1Q
1U
1X
1`
1P
1A
1,
#46000
0(
0@
0Q
0U
0X
0`
0P
0A
0,
#46500
1(
1'
1@
1?
1S
1Q
1U
1X
1`
1P
1A
1,
#47000
0(
0@
0Q
0U
0X
0`
0P
0A
0,
#47500
1(
1@
1Q
1U
1X
1`
1P
1A
1,
#48000
0(
0'
0@
0?
0S
0Q
0U
0X
0`
0P
0A
0,
#48500
1(
1@
1Q
1U
1X
1`
1P
1A
1,
#48750
1&
1>
1W
#49000
0(
0@
0Q
0U
0X
0`
0P
0A
0,
#49500
1(
1'
1@
1?
1S
1Q
1U
1X
1`
1P
1A
1,
#50000
0(
0@
0Q
0U
0X
0`
0P
0A
0,
#50500
1(
1@
1Q
1U
1X
1`
1P
1A
1,
#51000
0(
0'
0@
0?
0S
0Q
0U
0X
0`
0P
0A
0,
#51500
1(
1@
1Q
1U
1X
1`
1P
1A
1,
#52000
0(
0@
0Q
0U
0X
0`
0P
0A
0,
#52500
1(
1'
0&
1%
1@
1?
0>
1=
1V
0W
1S
1Q
1U
1X
1`
1P
1A
1,
#53000
0(
0@
0Q
0U
0X
0`
0P
0A
0,
#53500
1(
1@
1Q
1U
1X
1`
1P
1A
1,
#54000
0(
0'
0@
0?
0S
0Q
0U
0X
0`
0P
0A
0,
#54500
1(
1@
1Q
1U
1X
1`
1P
1A
1,
#55000
0(
0@
0Q
0U
0X
0`
0P
0A
0,
#55500
1(
1'
1@
1?
1S
1Q
1U
1X
1`
1P
1A
1,
#56000
0(
0@
0Q
0U
0X
0`
0P
0A
0,
#56250
1&
1>
1W
#56500
1(
1@
1Q
1U
1X
1`
1P
1A
1,
#57000
0(
0'
0@
0?
0S
0Q
0U
0X
0`
0P
0A
0,
#57500
1(
1@
1Q
1U
1X
1`
1P
1A
1,
#58000
0(
0@
0Q
0U
0X
0`
0P
0A
0,
#58500
1(
1'
1@
1?
1S
1Q
1U
1X
1`
1P
1A
1,
#59000
0(
0@
0Q
0U
0X
0`
0P
0A
0,
#59500
1(
1@
1Q
1U
1X
1`
1P
1A
1,
#60000
0(
0'
0&
0%
0$
0#
1"
0@
0?
0>
0=
0<
0;
1:
1\
0Y
0[
0V
0W
0S
0Q
0U
0]
0^
0X
0`
0P
0A
0,
#60500
1(
1@
1Q
1U
1X
1`
1P
1A
1,
#61000
0(
0@
0Q
0U
0X
0`
0P
0A
0,
#61500
1(
1'
1@
1?
1S
1Q
1U
1X
1`
1P
1A
1,
#62000
0(
0@
0Q
0U
0X
0`
0P
0A
0,
#62500
1(
1@
1Q
1U
1X
1`
1P
1A
1,
#63000
0(
0'
0@
0?
0S
0Q
0U
0X
0`
0P
0A
0,
#63500
1(
1@
1Q
1U
1X
1`
1P
1A
1,
#63750
1&
1>
1W
#64000
0(
0@
0Q
0U
0X
0`
0P
0A
0,
#64500
1(
1'
1@
1?
1S
1Q
1U
1X
1`
1P
1A
1,
#65000
0(
0@
0Q
0U
0X
0`
0P
0A
0,
#65500
1(
1@
1Q
1U
1X
1`
1P
1A
1,
#66000
0(
0'
0@
0?
0S
0Q
0U
0X
0`
0P
0A
0,
#66500
1(
1@
1Q
1U
1X
1`
1P
1A
1,
#67000
0(
0@
0Q
0U
0X
0`
0P
0A
0,
#67500
1(
1'
0&
1%
1@
1?
0>
1=
1V
0W
1S
1Q
1U
1X
1`
1P
1A
1,
#68000
0(
0@
0Q
0U
0X
0`
0P
0A
0,
#68500
1(
1@
1Q
1U
1X
1`
1P
1A
1,
#69000
0(
0'
0@
0?
0S
0Q
0U
0X
0`
0P
0A
0,
#69500
1(
1@
1Q
1U
1X
1`
1P
1A
1,
#70000
0(
0@
0Q
0U
0X
0`
0P
0A
0,
#70500
1(
1'
1@
1?
1S
1Q
1U
1X
1`
1P
1A
1,
#71000
0(
0@
0Q
0U
0X
0`
0P
0A
0,
#71250
1&
1>
1W
#71500
1(
1@
1Q
1U
1X
1`
1P
1A
1,
#72000
0(
0'
0@
0?
0S
0Q
0U
0X
0`
0P
0A
0,
#72500
1(
1@
1Q
1U
1X
1`
1P
1A
1,
#73000
0(
0@
0Q
0U
0X
0`
0P
0A
0,
#73500
1(
1'
1@
1?
1S
1Q
1U
1X
1`
1P
1A
1,
#74000
0(
0@
0Q
0U
0X
0`
0P
0A
0,
#74500
1(
1@
1Q
1U
1X
1`
1P
1A
1,
#75000
0(
0'
0&
0%
1$
0@
0?
0>
0=
1<
1[
0V
0W
0S
0Q
0U
1]
1^
0X
0`
0P
0A
0,
#75500
1(
1@
1Q
1U
1X
1`
1P
1A
1,
#76000
0(
0@
0Q
0U
0X
0`
0P
0A
0,
#76500
1(
1'
1@
1?
1S
1Q
1U
1X
1`
1P
1A
1,
#77000
0(
0@
0Q
0U
0X
0`
0P
0A
0,
#77500
1(
1@
1Q
1U
1X
1`
1P
1A
1,
#78000
0(
0'
0@
0?
0S
0Q
0U
0X
0`
0P
0A
0,
#78500
1(
1@
1Q
1U
1X
1`
1P
1A
1,
#78750
1&
1>
1W
#79000
0(
0@
0Q
0U
0X
0`
0P
0A
0,
#79500
1(
1'
1@
1?
1S
1Q
1U
1X
1`
1P
1A
1,
#80000
0(
0@
0Q
0U
0X
0`
0P
0A
0,
#80500
1(
1@
1Q
1U
1X
1`
1P
1A
1,
#81000
0(
0'
0@
0?
0S
0Q
0U
0X
0`
0P
0A
0,
#81500
1(
1@
1Q
1U
1X
1`
1P
1A
1,
#82000
0(
0@
0Q
0U
0X
0`
0P
0A
0,
#82500
1(
1'
0&
1%
1@
1?
0>
1=
1V
0W
1S
1Q
1U
1X
1`
1P
1A
1,
#83000
0(
0@
0Q
0U
0X
0`
0P
0A
0,
#83500
1(
1@
1Q
1U
1X
1`
1P
1A
1,
#84000
0(
0'
0@
0?
0S
0Q
0U
0X
0`
0P
0A
0,
#84500
1(
1@
1Q
1U
1X
1`
1P
1A
1,
#85000
0(
0@
0Q
0U
0X
0`
0P
0A
0,
#85500
1(
1'
1@
1?
1S
1Q
1U
1X
1`
1P
1A
1,
#86000
0(
0@
0Q
0U
0X
0`
0P
0A
0,
#86250
1&
1>
1W
#86500
1(
1@
1Q
1U
1X
1`
1P
1A
1,
#87000
0(
0'
0@
0?
0S
0Q
0U
0X
0`
0P
0A
0,
#87500
1(
1@
1Q
1U
1X
1`
1P
1A
1,
#88000
0(
0@
0Q
0U
0X
0`
0P
0A
0,
#88500
1(
1'
1@
1?
1S
1Q
1U
1X
1`
1P
1A
1,
#89000
0(
0@
0Q
0U
0X
0`
0P
0A
0,
#89500
1(
1@
1Q
1U
1X
1`
1P
1A
1,
#90000
0(
0'
0&
0%
0$
1#
0@
0?
0>
0=
0<
1;
1Y
0[
0V
0W
0S
0Q
0U
0]
0^
0X
0`
0P
0A
0,
#90500
1(
1@
1Q
1U
1X
1`
1P
1A
1,
#91000
0(
0@
0Q
0U
0X
0`
0P
0A
0,
#91500
1(
1'
1@
1?
1S
1Q
1U
1X
1`
1P
1A
1,
#92000
0(
0@
0Q
0U
0X
0`
0P
0A
0,
#92500
1(
1@
1Q
1U
1X
1`
1P
1A
1,
#93000
0(
0'
0@
0?
0S
0Q
0U
0X
0`
0P
0A
0,
#93500
1(
1@
1Q
1U
1X
1`
1P
1A
1,
#93750
1&
1>
1W
#94000
0(
0@
0Q
0U
0X
0`
0P
0A
0,
#94500
1(
1'
1@
1?
1S
1Q
1U
1X
1`
1P
1A
1,
#95000
0(
0@
0Q
0U
0X
0`
0P
0A
0,
#95500
1(
1@
1Q
1U
1X
1`
1P
1A
1,
#96000
0(
0'
0@
0?
0S
0Q
0U
0X
0`
0P
0A
0,
#96500
1(
1@
1Q
1U
1X
1`
1P
1A
1,
#97000
0(
0@
0Q
0U
0X
0`
0P
0A
0,
#97500
1(
1'
0&
1%
1@
1?
0>
1=
1V
0W
1S
1Q
1U
1X
1`
1P
1A
1,
#98000
0(
0@
0Q
0U
0X
0`
0P
0A
0,
#98500
1(
1@
1Q
1U
1X
1`
1P
1A
1,
#99000
0(
0'
0@
0?
0S
0Q
0U
0X
0`
0P
0A
0,
#99500
1(
1@
1Q
1U
1X
1`
1P
1A
1,
#100000
0(
0@
0Q
0U
0X
0`
0P
0A
0,
#100500
1(
1'
1@
1?
1S
1Q
1U
1X
1`
1P
1A
1,
#101000
0(
0@
0Q
0U
0X
0`
0P
0A
0,
#101250
1&
1>
1W
#101500
1(
1@
1Q
1U
1X
1`
1P
1A
1,
#102000
0(
0'
0@
0?
0S
0Q
0U
0X
0`
0P
0A
0,
#102500
1(
1@
1Q
1U
1X
1`
1P
1A
1,
#103000
0(
0@
0Q
0U
0X
0`
0P
0A
0,
#103500
1(
1'
1@
1?
1S
1Q
1U
1X
1`
1P
1A
1,
#104000
0(
0@
0Q
0U
0X
0`
0P
0A
0,
#104500
1(
1@
1Q
1U
1X
1`
1P
1A
1,
#105000
0(
0'
0&
0%
1$
0@
0?
0>
0=
1<
1[
0V
0W
0S
0Q
0U
1]
1^
0X
0`
0P
0A
0,
#105500
1(
1@
1Q
1U
1X
1`
1P
1A
1,
#106000
0(
0@
0Q
0U
0X
0`
0P
0A
0,
#106500
1(
1'
1@
1?
1S
1Q
1U
1X
1`
1P
1A
1,
#107000
0(
0@
0Q
0U
0X
0`
0P
0A
0,
#107500
1(
1@
1Q
1U
1X
1`
1P
1A
1,
#108000
0(
0'
0@
0?
0S
0Q
0U
0X
0`
0P
0A
0,
#108500
1(
1@
1Q
1U
1X
1`
1P
1A
1,
#108750
1&
1>
1W
#109000
0(
0@
0Q
0U
0X
0`
0P
0A
0,
#109500
1(
1'
1@
1?
1S
1Q
1U
1X
1`
1P
1A
1,
#110000
0(
0@
0Q
0U
0X
0`
0P
0A
0,
#110500
1(
1@
1Q
1U
1X
1`
1P
1A
1,
#111000
0(
0'
0@
0?
0S
0Q
0U
0X
0`
0P
0A
0,
#111500
1(
1@
1Q
1U
1X
1`
1P
1A
1,
#112000
0(
0@
0Q
0U
0X
0`
0P
0A
0,
#112500
1(
1'
0&
1%
1@
1?
0>
1=
1V
0W
1S
1Q
1U
1X
1`
1P
1A
1,
#113000
0(
0@
0Q
0U
0X
0`
0P
0A
0,
#113500
1(
1@
1Q
1U
1X
1`
1P
1A
1,
#114000
0(
0'
0@
0?
0S
0Q
0U
0X
0`
0P
0A
0,
#114500
1(
1@
1Q
1U
1X
1`
1P
1A
1,
#115000
0(
0@
0Q
0U
0X
0`
0P
0A
0,
#115500
1(
1'
1@
1?
1S
1Q
1U
1X
1`
1P
1A
1,
#116000
0(
0@
0Q
0U
0X
0`
0P
0A
0,
#116250
1&
1>
1W
#116500
1(
1@
1Q
1U
1X
1`
1P
1A
1,
#117000
0(
0'
0@
0?
0S
0Q
0U
0X
0`
0P
0A
0,
#117500
1(
1@
1Q
1U
1X
1`
1P
1A
1,
#118000
0(
0@
0Q
0U
0X
0`
0P
0A
0,
#118500
1(
1'
1@
1?
1S
1Q
1U
1X
1`
1P
1A
1,
#119000
0(
0@
0Q
0U
0X
0`
0P
0A
0,
#119500
1(
1@
1Q
1U
1X
1`
1P
1A
1,
#120000
0(
0'
0&
0%
0$
0#
0"
1!
1+
0@
0?
0>
0=
0<
0;
0:
19
18
1R
1Z
0\
0Y
0[
0V
0W
0S
0Q
0U
0]
0^
0X
0`
0P
0A
0,
#120500
1(
1@
1Q
#121000
0(
0@
0Q
#121500
1(
1'
1@
1?
1S
1Q
1U
1X
1`
1P
1A
1,
#122000
0(
0@
0Q
#122500
1(
1@
1Q
#123000
0(
0'
0@
0?
0S
0Q
0U
0X
0`
0P
0A
0,
#123500
1(
1@
1Q
#123750
1&
1>
1W
#124000
0(
0@
0Q
#124500
1(
1'
1@
1?
1S
1Q
1U
1X
1`
1P
1A
1,
#125000
0(
0@
0Q
#125500
1(
1@
1Q
#126000
0(
0'
0@
0?
0S
0Q
0U
0X
0`
0P
0A
0,
#126500
1(
1@
1Q
#127000
0(
0@
0Q
#127500
1(
1'
0&
1%
1@
1?
0>
1=
1V
0W
1S
1Q
1U
1X
1`
1P
1A
1,
#128000
0(
0@
0Q
#128500
1(
1@
1Q
#129000
0(
0'
0@
0?
0S
0Q
0U
0X
0`
0P
0A
0,
#129500
1(
1@
1Q
#130000
0(
0@
0Q
#130500
1(
1'
1@
1?
1S
1Q
1U
1X
1`
1P
1A
1,
#131000
0(
0@
0Q
#131250
1&
1>
1W
#131500
1(
1@
1Q
#132000
0(
0'
0@
0?
0S
0Q
0U
0X
0`
0P
0A
0,
#132500
1(
1@
1Q
#133000
0(
0@
0Q
#133500
1(
1'
1@
1?
1S
1Q
1U
1X
1`
1P
1A
1,
#134000
0(
0@
0Q
#134500
1(
1@
1Q
#135000
0(
0'
0&
0%
1$
0@
0?
0>
0=
1<
1[
0V
0W
0S
0Q
0U
0X
0`
0P
0A
0,
#135500
1(
1@
1Q
#136000
0(
0@
0Q
#136500
1(
1'
1@
1?
1S
1Q
1U
1X
1`
1P
1A
1,
#137000
0(
0@
0Q
#137500
1(
1@
1Q
#138000
0(
0'
0@
0?
0S
0Q
0U
0X
0`
0P
0A
0,
#138500
1(
1@
1Q
#138750
1&
1>
1W
#139000
0(
0@
0Q
#139500
1(
1'
1@
1?
1S
1Q
1U
1X
1`
1P
1A
1,
#140000
0(
0@
0Q
#140500
1(
1@
1Q
#141000
0(
0'
0@
0?
0S
0Q
0U
0X
0`
0P
0A
0,
#141500
1(
1@
1Q
#142000
0(
0@
0Q
#142500
1(
1'
0&
1%
1@
1?
0>
1=
1V
0W
1S
1Q
1U
1X
1`
1P
1A
1,
#143000
0(
0@
0Q
#143500
1(
1@
1Q
#144000
0(
0'
0@
0?
0S
0Q
0U
0X
0`
0P
0A
0,
#144500
1(
1@
1Q
#145000
0(
0@
0Q
#145500
1(
1'
1@
1?
1S
1Q
1U
1X
1`
1P
1A
1,
#146000
0(
0@
0Q
#146250
1&
1>
1W
#146500
1(
1@
1Q
#147000
0(
0'
0@
0?
0S
0Q
0U
0X
0`
0P
0A
0,
#147500
1(
1@
1Q
#148000
0(
0@
0Q
#148500
1(
1'
1@
1?
1S
1Q
1U
1X
1`
1P
1A
1,
#149000
0(
0@
0Q
#149500
1(
1@
1Q
#150000
0(
0'
0&
0%
0$
1#
0@
0?
0>
0=
0<
1;
1Y
0[
0V
0W
0S
0Q
0U
1^
0X
0`
0P
0A
0,
#150500
1(
1@
1Q
#151000
0(
0@
0Q
#151500
1(
1'
1@
1?
1S
1Q
1U
1X
1`
1P
1A
1,
#152000
0(
0@
0Q
#152500
1(
1@
1Q
#153000
0(
0'
0@
0?
0S
0Q
0U
0X
0`
0P
0A
0,
#153500
1(
1@
1Q
#153750
1&
1>
1W
#154000
0(
0@
0Q
#154500
1(
1'
1@
1?
1S
1Q
1U
1X
1`
1P
1A
1,
#155000
0(
0@
0Q
#155500
1(
1@
1Q
#156000
0(
0'
0@
0?
0S
0Q
0U
0X
0`
0P
0A
0,
#156500
1(
1@
1Q
#157000
0(
0@
0Q
#157500
1(
1'
0&
1%
1@
1?
0>
1=
1V
0W
1S
1Q
1U
1X
1`
1P
1A
1,
#158000
0(
0@
0Q
#158500
1(
1@
1Q
#159000
0(
0'
0@
0?
0S
0Q
0U
0X
0`
0P
0A
0,
#159500
1(
1@
1Q
#160000
0(
0@
0Q
#160500
1(
1'
1@
1?
1S
1Q
1U
1X
1`
1P
1A
1,
#161000
0(
0@
0Q
#161250
1&
1>
1W
#161500
1(
1@
1Q
#162000
0(
0'
0@
0?
0S
0Q
0U
0X
0`
0P
0A
0,
#162500
1(
1@
1Q
#163000
0(
0@
0Q
#163500
1(
1'
1@
1?
1S
1Q
1U
1X
1`
1P
1A
1,
#164000
0(
0@
0Q
#164500
1(
1@
1Q
#165000
0(
0'
0&
0%
1$
0@
0?
0>
0=
1<
1[
0V
0W
0S
0Q
0U
0X
0`
0P
0A
0,
#165500
1(
1@
1Q
#166000
0(
0@
0Q
#166500
1(
1'
1@
1?
1S
1Q
1U
1X
1`
1P
1A
1,
#167000
0(
0@
0Q
#167500
1(
1@
1Q
#168000
0(
0'
0@
0?
0S
0Q
0U
0X
0`
0P
0A
0,
#168500
1(
1@
1Q
#168750
1&
1>
1W
#169000
0(
0@
0Q
#169500
1(
1'
1@
1?
1S
1Q
1U
1X
1`
1P
1A
1,
#170000
0(
0@
0Q
#170500
1(
1@
1Q
#171000
0(
0'
0@
0?
0S
0Q
0U
0X
0`
0P
0A
0,
#171500
1(
1@
1Q
#172000
0(
0@
0Q
#172500
1(
1'
0&
1%
1@
1?
0>
1=
1V
0W
1S
1Q
1U
1X
1`
1P
1A
1,
#173000
0(
0@
0Q
#173500
1(
1@
1Q
#174000
0(
0'
0@
0?
0S
0Q
0U
0X
0`
0P
0A
0,
#174500
1(
1@
1Q
#175000
0(
0@
0Q
#175500
1(
1'
1@
1?
1S
1Q
1U
1X
1`
1P
1A
1,
#176000
0(
0@
0Q
#176250
1&
1>
1W
#176500
1(
1@
1Q
#177000
0(
0'
0@
0?
0S
0Q
0U
0X
0`
0P
0A
0,
#177500
1(
1@
1Q
#178000
0(
0@
0Q
#178500
1(
1'
1@
1?
1S
1Q
1U
1X
1`
1P
1A
1,
#179000
0(
0@
0Q
#179500
1(
1@
1Q
#180000
0(
0'
0&
0%
0$
0#
1"
0@
0?
0>
0=
0<
0;
1:
1\
0Y
0[
0V
0W
0S
0Q
0U
0^
0X
0`
0P
0A
0,
#180500
1(
1@
1Q
#181000
0(
0@
0Q
#181500
1(
1'
1@
1?
1S
1Q
1U
1X
1`
1P
1A
1,
#182000
0(
0@
0Q
#182500
1(
1@
1Q
#183000
0(
0'
0@
0?
0S
0Q
0U
0X
0`
0P
0A
0,
#183500
1(
1@
1Q
#183750
1&
1>
1W
#184000
0(
0@
0Q
#184500
1(
1'
1@
1?
1S
1Q
1U
1X
1`
1P
1A
1,
#185000
0(
0@
0Q
#185500
1(
1@
1Q
#186000
0(
0'
0@
0?
0S
0Q
0U
0X
0`
0P
0A
0,
#186500
1(
1@
1Q
#187000
0(
0@
0Q
#187500
1(
1'
0&
1%
1@
1?
0>
1=
1V
0W
1S
1Q
1U
1X
1`
1P
1A
1,
#188000
0(
0@
0Q
#188500
1(
1@
1Q
#189000
0(
0'
0@
0?
0S
0Q
0U
0X
0`
0P
0A
0,
#189500
1(
1@
1Q
#190000
0(
0@
0Q
#190500
1(
1'
1@
1?
1S
1Q
1U
1X
1`
1P
1A
1,
#191000
0(
0@
0Q
#191250
1&
1>
1W
#191500
1(
1@
1Q
#192000
0(
0'
0@
0?
0S
0Q
0U
0X
0`
0P
0A
0,
#192500
1(
1@
1Q
#193000
0(
0@
0Q
#193500
1(
1'
1@
1?
1S
1Q
1U
1X
1`
1P
1A
1,
#194000
0(
0@
0Q
#194500
1(
1@
1Q
#195000
0(
0'
0&
0%
1$
0@
0?
0>
0=
1<
1[
0V
0W
0S
0Q
0U
0X
0`
0P
0A
0,
#195500
1(
1@
1Q
#196000
0(
0@
0Q
#196500
1(
1'
1@
1?
1S
1Q
1U
1X
1`
1P
1A
1,
#197000
0(
0@
0Q
#197500
1(
1@
1Q
#198000
0(
0'
0@
0?
0S
0Q
0U
0X
0`
0P
0A
0,
#198500
1(
1@
1Q
#198750
1&
1>
1W
#199000
0(
0@
0Q
