hw701/simulation/qsim/hw701.msim.vcd
$comment
	File created using the following command:
		vcd file hw701.msim.vcd -direction
$end
$date
	Wed Apr 19 16:20:55 2023
$end
$version
	ModelSim Version 10.5b
$end
$timescale
	1ps
$end

$scope module BCDadd_vlg_vec_tst $end
$var reg 1 ! A0 $end
$var reg 1 " A1 $end
$var reg 1 # A2 $end
$var reg 1 $ A3 $end
$var reg 1 % B0 $end
$var reg 1 & B1 $end
$var reg 1 ' B2 $end
$var reg 1 ( B3 $end
$var reg 1 ) C $end
$var wire 1 * DIGIT_1 $end
$var wire 1 + Y0 $end
$var wire 1 , Y1 $end
$var wire 1 - Y2 $end
$var wire 1 . Y3 $end

$scope module i1 $end
$var wire 1 / gnd $end
$var wire 1 0 vcc $end
$var wire 1 1 unknown $end
$var tri1 1 2 devclrn $end
$var tri1 1 3 devpor $end
$var tri1 1 4 devoe $end
$var wire 1 5 ~QUARTUS_CREATED_GND~I_combout $end
$var wire 1 6 ~QUARTUS_CREATED_UNVM~~busy $end
$var wire 1 7 ~QUARTUS_CREATED_ADC1~~eoc $end
$var wire 1 8 ~QUARTUS_CREATED_ADC2~~eoc $end
$var wire 1 9 Y0~output_o $end
$var wire 1 : Y1~output_o $end
$var wire 1 ; Y2~output_o $end
$var wire 1 < Y3~output_o $end
$var wire 1 = DIGIT_1~output_o $end
$var wire 1 > C~input_o $end
$var wire 1 ? B0~input_o $end
$var wire 1 @ A0~input_o $end
$var wire 1 A i|inst|inst1|inst2~0_combout $end
$var wire 1 B B1~input_o $end
$var wire 1 C A1~input_o $end
$var wire 1 D i|inst|inst2~0_combout $end
$var wire 1 E B3~input_o $end
$var wire 1 F i|inst1|inst2~0_combout $end
$var wire 1 G B2~input_o $end
$var wire 1 H A2~input_o $end
$var wire 1 I i|inst2|inst2~0_combout $end
$var wire 1 J A3~input_o $end
$var wire 1 K i|inst2|inst1|inst2~0_combout $end
$var wire 1 L iiii~0_combout $end
$var wire 1 M iiii~1_combout $end
$var wire 1 N iiiii|inst1|inst|inst2~combout $end
$var wire 1 O i|inst1|inst1|inst2~combout $end
$var wire 1 P iiiii|inst2|inst1|inst2~0_combout $end
$var wire 1 Q iiiii|inst3|inst1|inst2~0_combout $end
$upscope $end
$upscope $end
$enddefinitions $end
#0
$dumpvars
1!
0"
0#
0$
1%
0&
0'
0(
0)
0*
0+
1,
0-
0.
0/
10
x1
12
13
14
05
z6
z7
z8
09
1:
0;
0<
0=
0>
1?
1@
0A
0B
0C
1D
0E
0F
0G
0H
0I
0J
0K
1L
0M
1N
1O
0P
0Q
$end
#10000
1"
0!
1&
0%
0?
1B
0@
1C
0D
1F
0O
0N
1P
1;
0:
0,
1-
#20000
1!
1%
1?
1@
1D
1O
1N
1:
1,
#30000
1#
1'
0"
0&
0!
0%
0?
0@
0B
0C
1G
1H
0D
0F
1I
0O
0L
0N
0P
1M
1=
0;
0:
0,
0-
1*
1P
1Q
0M
1N
1:
0=
1<
1;
1-
1.
0*
1,
0P
0N
0:
0;
0-
0,
#40000
1!
1%
1?
1@
1D
1O
1L
1N
1:
1,
0Q
1M
1=
0<
0.
1*
0N
0:
0,
#50000
1"
1&
0!
0%
0?
0@
1B
1C
0D
1F
0O
1N
1P
1;
1:
1,
1-
0P
0;
0-
#60000
1!
1%
1?
1@
1D
1O
0N
0:
0,
1P
1;
1-
#70000
1$
1(
0#
0'
0"
0&
0!
0%
0?
0@
0B
0C
0G
0H
1E
1J
0D
0F
0I
0O
0L
1N
0P
1Q
1<
0;
1:
1,
0-
1.
1P
0Q
0<
1;
1-
0.
#80000
1!
1%
1?
1@
1D
1O
1L
0N
0:
0,
0P
1Q
1<
0;
0-
1.
#90000
1"
1&
0!
0%
0?
0@
1B
1C
0D
1F
0O
1N
1P
1;
1:
1,
1-
0P
0;
0-
#100000
1!
1%
1?
1@
1D
1O
0N
0:
0,
1P
1;
1-
#110000
1#
1'
0"
0&
0!
0%
0?
0@
0B
0C
1G
1H
0D
0F
1I
0O
0L
1N
0P
0Q
0<
0;
1:
1,
0-
0.
1P
1Q
1<
1;
1-
1.
#120000
1!
1%
1?
1@
1D
1O
1L
0N
0:
0,
0P
0Q
0<
0;
0-
0.
#130000
1"
1&
0!
0%
0?
0@
1B
1C
0D
1F
0O
1N
1P
1;
1:
1,
1-
0P
0;
0-
#140000
1!
1%
1?
1@
1D
1O
0N
0:
0,
1P
1;
1-
#150000
0$
0(
0#
0'
0"
0&
0!
0%
0?
0@
0B
0C
0G
0H
0E
0J
0D
0F
0I
0O
0L
1N
0P
0M
0=
0;
1:
1,
0-
0*
0N
0:
0,
#160000
1!
1%
1?
1@
1D
1O
1L
1N
1:
1,
#170000
1"
1&
0!
0%
0?
0@
1B
1C
0D
1F
0O
0N
1P
1;
0:
0,
1-
#180000
1!
1%
1?
1@
1D
1O
1N
1:
1,
#190000
1#
1'
0"
0&
0!
0%
0?
0@
0B
0C
1G
1H
0D
0F
1I
0O
0L
0N
0P
1M
1=
0;
0:
0,
0-
1*
1P
1Q
0M
1N
1:
0=
1<
1;
1-
1.
0*
1,
0P
0N
0:
0;
0-
0,
#200000
1!
1%
1?
1@
1D
1O
1L
1N
1:
1,
0Q
1M
1=
0<
0.
1*
0N
0:
0,
#210000
1"
1&
0!
0%
0?
0@
1B
1C
0D
1F
0O
1N
1P
1;
1:
1,
1-
0P
0;
0-
#220000
1!
1%
1?
1@
1D
1O
0N
0:
0,
1P
1;
1-
#230000
1$
1(
0#
0'
0"
0&
0!
0%
0?
0@
0B
0C
0G
0H
1E
1J
0D
0F
0I
0O
0L
1N
0P
1Q
1<
0;
1:
1,
0-
1.
1P
0Q
0<
1;
1-
0.
#240000
1!
1%
1?
1@
1D
1O
1L
0N
0:
0,
0P
1Q
1<
0;
0-
1.
#250000
1"
1&
0!
0%
0?
0@
1B
1C
0D
1F
0O
1N
1P
1;
1:
1,
1-
0P
0;
0-
#260000
1!
1%
1?
1@
1D
1O
0N
0:
0,
1P
1;
1-
#270000
1#
1'
0"
0&
0!
0%
0?
0@
0B
0C
1G
1H
0D
0F
1I
0O
0L
1N
0P
0Q
0<
0;
1:
1,
0-
0.
1P
1Q
1<
1;
1-
1.
#280000
1!
1%
1?
1@
1D
1O
1L
0N
0:
0,
0P
0Q
0<
0;
0-
0.
#290000
1"
1&
0!
0%
0?
0@
1B
1C
0D
1F
0O
1N
1P
1;
1:
1,
1-
0P
0;
0-
#300000
1!
1%
1?
1@
1D
1O
0N
0:
0,
1P
1;
1-
#310000
0$
0(
0#
0'
0"
0&
0!
0%
0?
0@
0B
0C
0G
0H
0E
0J
0D
0F
0I
0O
0L
1N
0P
0M
0=
0;
1:
1,
0-
0*
0N
0:
0,
#320000
1!
1%
1?
1@
1D
1O
1L
1N
1:
1,
#330000
1"
1&
0!
0%
0?
0@
1B
1C
0D
1F
0O
0N
1P
1;
0:
0,
1-
#340000
1!
1%
1?
1@
1D
1O
1N
1:
1,
#350000
1#
1'
0"
0&
0!
0%
0?
0@
0B
0C
1G
1H
0D
0F
1I
0O
0L
0N
0P
1M
1=
0;
0:
0,
0-
1*
1P
1Q
0M
1N
1:
0=
1<
1;
1-
1.
0*
1,
0P
0N
0:
0;
0-
0,
#360000
1!
1%
1?
1@
1D
1O
1L
1N
1:
1,
0Q
1M
1=
0<
0.
1*
0N
0:
0,
#370000
1"
1&
0!
0%
0?
0@
1B
1C
0D
1F
0O
1N
1P
1;
1:
1,
1-
0P
0;
0-
#380000
1!
1%
1?
1@
1D
1O
0N
0:
0,
1P
1;
1-
#390000
1$
1(
0#
0'
0"
0&
0!
0%
0?
0@
0B
0C
0G
0H
1E
1J
0D
0F
0I
0O
0L
1N
0P
1Q
1<
0;
1:
1,
0-
1.
1P
0Q
0<
1;
1-
0.
#400000
1!
1%
1?
1@
1D
1O
1L
0N
0:
0,
0P
1Q
1<
0;
0-
1.
#410000
1"
1&
0!
0%
0?
0@
1B
1C
0D
1F
0O
1N
1P
1;
1:
1,
1-
0P
0;
0-
#420000
1!
1%
1?
1@
1D
1O
0N
0:
0,
1P
1;
1-
#430000
1#
1'
0"
0&
0!
0%
0?
0@
0B
0C
1G
1H
0D
0F
1I
0O
0L
1N
0P
0Q
0<
0;
1:
1,
0-
0.
1P
1Q
1<
1;
1-
1.
#440000
1!
1%
1?
1@
1D
1O
1L
0N
0:
0,
0P
0Q
0<
0;
0-
0.
#450000
1"
1&
0!
0%
0?
0@
1B
1C
0D
1F
0O
1N
1P
1;
1:
1,
1-
0P
0;
0-
#460000
1!
1%
1?
1@
1D
1O
0N
0:
0,
1P
1;
1-
#470000
0$
0(
0#
0'
0"
0&
0!
0%
0?
0@
0B
0C
0G
0H
0E
0J
0D
0F
0I
0O
0L
1N
0P
0M
0=
0;
1:
1,
0-
0*
0N
0:
0,
#480000
1!
1%
1?
1@
1D
1O
1L
1N
1:
1,
#490000
1"
1&
0!
0%
0?
0@
1B
1C
0D
1F
0O
0N
1P
1;
0:
0,
1-
#500000
1!
1%
1?
1@
1D
1O
1N
1:
1,
#510000
1#
1'
0"
0&
0!
0%
0?
0@
0B
0C
1G
1H
0D
0F
1I
0O
0L
0N
0P
1M
1=
0;
0:
0,
0-
1*
1P
1Q
0M
1N
1:
0=
1<
1;
1-
1.
0*
1,
0P
0N
0:
0;
0-
0,
#520000
1!
1%
1?
1@
1D
1O
1L
1N
1:
1,
0Q
1M
1=
0<
0.
1*
0N
0:
0,
#530000
1"
1&
0!
0%
0?
0@
1B
1C
0D
1F
0O
1N
1P
1;
1:
1,
1-
0P
0;
0-
#540000
1!
1%
1?
1@
1D
1O
0N
0:
0,
1P
1;
1-
#550000
1$
1(
0#
0'
0"
0&
0!
0%
0?
0@
0B
0C
0G
0H
1E
1J
0D
0F
0I
0O
0L
1N
0P
1Q
1<
0;
1:
1,
0-
1.
1P
0Q
0<
1;
1-
0.
#560000
1!
1%
1?
1@
1D
1O
1L
0N
0:
0,
0P
1Q
1<
0;
0-
1.
#570000
1"
1&
0!
0%
0?
0@
1B
1C
0D
1F
0O
1N
1P
1;
1:
1,
1-
0P
0;
0-
#580000
1!
1%
1?
1@
1D
1O
0N
0:
0,
1P
1;
1-
#590000
1#
1'
0"
0&
0!
0%
0?
0@
0B
0C
1G
1H
0D
0F
1I
0O
0L
1N
0P
0Q
0<
0;
1:
1,
0-
0.
1P
1Q
1<
1;
1-
1.
#600000
1!
1%
1?
1@
1D
1O
1L
0N
0:
0,
0P
0Q
0<
0;
0-
0.
#610000
1"
1&
0!
0%
0?
0@
1B
1C
0D
1F
0O
1N
1P
1;
1:
1,
1-
0P
0;
0-
#620000
1!
1%
1?
1@
1D
1O
0N
0:
0,
1P
1;
1-
#630000
0$
0(
0#
0'
0"
0&
0!
0%
0?
0@
0B
0C
0G
0H
0E
0J
0D
0F
0I
0O
0L
1N
0P
0M
0=
0;
1:
1,
0-
0*
0N
0:
0,
#640000
1!
1%
1?
1@
1D
1O
1L
1N
1:
1,
#650000
1"
1&
0!
0%
0?
0@
1B
1C
0D
1F
0O
0N
1P
1;
0:
0,
1-
#660000
1!
1%
1?
1@
1D
1O
1N
1:
1,
#670000
1#
1'
0"
0&
0!
0%
0?
0@
0B
0C
1G
1H
0D
0F
1I
0O
0L
0N
0P
1M
1=
0;
0:
0,
0-
1*
1P
1Q
0M
1N
1:
0=
1<
1;
1-
1.
0*
1,
0P
0N
0:
0;
0-
0,
#680000
1!
1%
1?
1@
1D
1O
1L
1N
1:
1,
0Q
1M
1=
0<
0.
1*
0N
0:
0,
#690000
1"
1&
0!
0%
0?
0@
1B
1C
0D
1F
0O
1N
1P
1;
1:
1,
1-
0P
0;
0-
#700000
1!
1%
1?
1@
1D
1O
0N
0:
0,
1P
1;
1-
#710000
1$
1(
0#
0'
0"
0&
0!
0%
0?
0@
0B
0C
0G
0H
1E
1J
0D
0F
0I
0O
0L
1N
0P
1Q
1<
0;
1:
1,
0-
1.
1P
0Q
0<
1;
1-
0.
#720000
1!
1%
1?
1@
1D
1O
1L
0N
0:
0,
0P
1Q
1<
0;
0-
1.
#730000
1"
1&
0!
0%
0?
0@
1B
1C
0D
1F
0O
1N
1P
1;
1:
1,
1-
0P
0;
0-
#740000
1!
1%
1?
1@
1D
1O
0N
0:
0,
1P
1;
1-
#750000
1#
1'
0"
0&
0!
0%
0?
0@
0B
0C
1G
1H
0D
0F
1I
0O
0L
1N
0P
0Q
0<
0;
1:
1,
0-
0.
1P
1Q
1<
1;
1-
1.
#760000
1!
1%
1?
1@
1D
1O
1L
0N
0:
0,
0P
0Q
0<
0;
0-
0.
#770000
1"
1&
0!
0%
0?
0@
1B
1C
0D
1F
0O
1N
1P
1;
1:
1,
1-
0P
0;
0-
#780000
1!
1%
1?
1@
1D
1O
0N
0:
0,
1P
1;
1-
#790000
0$
0(
0#
0'
0"
0&
0!
0%
0?
0@
0B
0C
0G
0H
0E
0J
0D
0F
0I
0O
0L
1N
0P
0M
0=
0;
1:
1,
0-
0*
0N
0:
0,
#800000
1!
1%
1?
1@
1D
1O
1L
1N
1:
1,
#810000
1"
1&
0!
0%
0?
0@
1B
1C
0D
1F
0O
0N
1P
1;
0:
0,
1-
#820000
1!
1%
1?
1@
1D
1O
1N
1:
1,
#830000
1#
1'
0"
0&
0!
0%
0?
0@
0B
0C
1G
1H
0D
0F
1I
0O
0L
0N
0P
1M
1=
0;
0:
0,
0-
1*
1P
1Q
0M
1N
1:
0=
1<
1;
1-
1.
0*
1,
0P
0N
0:
0;
0-
0,
#840000
1!
1%
1?
1@
1D
1O
1L
1N
1:
1,
0Q
1M
1=
0<
0.
1*
0N
0:
0,
#850000
1"
1&
0!
0%
0?
0@
1B
1C
0D
1F
0O
1N
1P
1;
1:
1,
1-
0P
0;
0-
#860000
1!
1%
1?
1@
1D
1O
0N
0:
0,
1P
1;
1-
#870000
1$
1(
0#
0'
0"
0&
0!
0%
0?
0@
0B
0C
0G
0H
1E
1J
0D
0F
0I
0O
0L
1N
0P
1Q
1<
0;
1:
1,
0-
1.
1P
0Q
0<
1;
1-
0.
#880000
1!
1%
1?
1@
1D
1O
1L
0N
0:
0,
0P
1Q
1<
0;
0-
1.
#890000
1"
1&
0!
0%
0?
0@
1B
1C
0D
1F
0O
1N
1P
1;
1:
1,
1-
0P
0;
0-
#900000
1!
1%
1?
1@
1D
1O
0N
0:
0,
1P
1;
1-
#910000
1#
1'
0"
0&
0!
0%
0?
0@
0B
0C
1G
1H
0D
0F
1I
0O
0L
1N
0P
0Q
0<
0;
1:
1,
0-
0.
1P
1Q
1<
1;
1-
1.
#920000
1!
1%
1?
1@
1D
1O
1L
0N
0:
0,
0P
0Q
0<
0;
0-
0.
#930000
1"
1&
0!
0%
0?
0@
1B
1C
0D
1F
0O
1N
1P
1;
1:
1,
1-
0P
0;
0-
#940000
1!
1%
1?
1@
1D
1O
0N
0:
0,
1P
1;
1-
#950000
0$
0(
0#
0'
0"
0&
0!
0%
0?
0@
0B
0C
0G
0H
0E
0J
0D
0F
0I
0O
0L
1N
0P
0M
0=
0;
1:
1,
0-
0*
0N
0:
0,
#960000
1!
1%
1?
1@
1D
1O
1L
1N
1:
1,
#970000
1"
1&
0!
0%
0?
0@
1B
1C
0D
1F
0O
0N
1P
1;
0:
0,
1-
#980000
1!
1%
1?
1@
1D
1O
1N
1:
1,
#990000
1#
1'
0"
0&
0!
0%
0?
0@
0B
0C
1G
1H
0D
0F
1I
0O
0L
0N
0P
1M
1=
0;
0:
0,
0-
1*
1P
1Q
0M
1N
1:
0=
1<
1;
1-
1.
0*
1,
0P
0N
0:
0;
0-
0,
