hw602/simulation/qsim/hw602.msim.vcd
$comment
	File created using the following command:
		vcd file hw602.msim.vcd -direction
$end
$date
	Wed Mar 29 16:58:50 2023
$end
$version
	ModelSim Version 10.5b
$end
$timescale
	1ps
$end

$scope module hw602_vlg_vec_tst $end
$var reg 1 ! I0 $end
$var reg 1 " I1 $end
$var reg 1 # I2 $end
$var reg 1 $ I3 $end
$var reg 1 % S0 $end
$var reg 1 & S1 $end
$var wire 1 ' Z $end

$scope module i1 $end
$var wire 1 ( gnd $end
$var wire 1 ) vcc $end
$var wire 1 * unknown $end
$var tri1 1 + devclrn $end
$var tri1 1 , devpor $end
$var tri1 1 - devoe $end
$var wire 1 . ~QUARTUS_CREATED_GND~I_combout $end
$var wire 1 / ~QUARTUS_CREATED_UNVM~~busy $end
$var wire 1 0 ~QUARTUS_CREATED_ADC1~~eoc $end
$var wire 1 1 ~QUARTUS_CREATED_ADC2~~eoc $end
$var wire 1 2 Z~output_o $end
$var wire 1 3 I2~input_o $end
$var wire 1 4 I0~input_o $end
$var wire 1 5 I1~input_o $end
$var wire 1 6 S1~input_o $end
$var wire 1 7 S0~input_o $end
$var wire 1 8 inst6~0_combout $end
$var wire 1 9 I3~input_o $end
$var wire 1 : inst6~1_combout $end
$upscope $end
$upscope $end
$enddefinitions $end
#0
$dumpvars
1!
0"
0#
0$
0%
0&
1'
0(
1)
x*
1+
1,
1-
0.
z/
z0
z1
12
03
14
05
06
07
18
09
1:
$end
#10000
0!
1"
15
04
08
0:
02
0'
#20000
1#
0"
05
13
#30000
1$
0#
03
19
#40000
1%
1!
0$
09
14
17
#50000
1"
0!
04
15
18
1:
12
1'
#60000
1#
0"
05
13
08
0:
02
0'
#70000
1$
0#
03
19
#80000
1&
0%
1!
0$
09
14
07
16
#90000
1"
0!
04
15
#100000
1#
0"
05
13
1:
12
1'
#110000
1$
0#
03
19
0:
02
0'
#120000
1%
1!
0$
09
14
17
18
#130000
1"
0!
04
15
#140000
1#
0"
05
13
#150000
1$
0#
03
19
1:
12
1'
#160000
0&
0%
1!
0$
09
14
07
06
#170000
1"
0!
04
15
08
0:
02
0'
#180000
1#
0"
05
13
#190000
1$
0#
03
19
#200000
1%
1!
0$
09
14
17
#210000
1"
0!
04
15
18
1:
12
1'
#220000
1#
0"
05
13
08
0:
02
0'
#230000
1$
0#
03
19
#240000
1&
0%
1!
0$
09
14
07
16
#250000
1"
0!
04
15
#260000
1#
0"
05
13
1:
12
1'
#270000
1$
0#
03
19
0:
02
0'
#280000
1%
1!
0$
09
14
17
18
#290000
1"
0!
04
15
#300000
1#
0"
05
13
#310000
1$
0#
03
19
1:
12
1'
#320000
0&
0%
1!
0$
09
14
07
06
#330000
1"
0!
04
15
08
0:
02
0'
#340000
1#
0"
05
13
#350000
1$
0#
03
19
#360000
1%
1!
0$
09
14
17
#370000
1"
0!
04
15
18
1:
12
1'
#380000
1#
0"
05
13
08
0:
02
0'
#390000
1$
0#
03
19
#400000
1&
0%
1!
0$
09
14
07
16
#410000
1"
0!
04
15
#420000
1#
0"
05
13
1:
12
1'
#430000
1$
0#
03
19
0:
02
0'
#440000
1%
1!
0$
09
14
17
18
#450000
1"
0!
04
15
#460000
1#
0"
05
13
#470000
1$
0#
03
19
1:
12
1'
#480000
0&
0%
1!
0$
09
14
07
06
#490000
1"
0!
04
15
08
0:
02
0'
#500000
1#
0"
05
13
#510000
1$
0#
03
19
#520000
1%
1!
0$
09
14
17
#530000
1"
0!
04
15
18
1:
12
1'
#540000
1#
0"
05
13
08
0:
02
0'
#550000
1$
0#
03
19
#560000
1&
0%
1!
0$
09
14
07
16
#570000
1"
0!
04
15
#580000
1#
0"
05
13
1:
12
1'
#590000
1$
0#
03
19
0:
02
0'
#600000
1%
1!
0$
09
14
17
18
#610000
1"
0!
04
15
#620000
1#
0"
05
13
#630000
1$
0#
03
19
1:
12
1'
#640000
0&
0%
1!
0$
09
14
07
06
#650000
1"
0!
04
15
08
0:
02
0'
#660000
1#
0"
05
13
#670000
1$
0#
03
19
#680000
1%
1!
0$
09
14
17
#690000
1"
0!
04
15
18
1:
12
1'
#700000
1#
0"
05
13
08
0:
02
0'
#710000
1$
0#
03
19
#720000
1&
0%
1!
0$
09
14
07
16
#730000
1"
0!
04
15
#740000
1#
0"
05
13
1:
12
1'
#750000
1$
0#
03
19
0:
02
0'
#760000
1%
1!
0$
09
14
17
18
#770000
1"
0!
04
15
#780000
1#
0"
05
13
#790000
1$
0#
03
19
1:
12
1'
#800000
0&
0%
1!
0$
09
14
07
06
#810000
1"
0!
04
15
08
0:
02
0'
#820000
1#
0"
05
13
#830000
1$
0#
03
19
#840000
1%
1!
0$
09
14
17
#850000
1"
0!
04
15
18
1:
12
1'
#860000
1#
0"
05
13
08
0:
02
0'
#870000
1$
0#
03
19
#880000
1&
0%
1!
0$
09
14
07
16
#890000
1"
0!
04
15
#900000
1#
0"
05
13
1:
12
1'
#910000
1$
0#
03
19
0:
02
0'
#920000
1%
1!
0$
09
14
17
18
#930000
1"
0!
04
15
#940000
1#
0"
05
13
#950000
1$
0#
03
19
1:
12
1'
#960000
0&
0%
1!
0$
09
14
07
06
#970000
1"
0!
04
15
08
0:
02
0'
#980000
1#
0"
05
13
#990000
1$
0#
03
19
