hw9/simulation/qsim/hw9.msim.vcd
$comment
	File created using the following command:
		vcd file hw9.msim.vcd -direction
$end
$date
	Wed May 10 17:02:14 2023
$end
$version
	ModelSim Version 10.5b
$end
$timescale
	1ps
$end

$scope module debouncing_vhd_vec_tst $end
$var wire 1 ! CK $end
$var wire 1 " Din $end
$var wire 1 # Dout $end

$scope module i1 $end
$var wire 1 $ gnd $end
$var wire 1 % vcc $end
$var wire 1 & unknown $end
$var wire 1 ' devoe $end
$var wire 1 ( devclrn $end
$var wire 1 ) devpor $end
$var wire 1 * ww_devoe $end
$var wire 1 + ww_devclrn $end
$var wire 1 , ww_devpor $end
$var wire 1 - ww_Din $end
$var wire 1 . ww_CK $end
$var wire 1 / ww_Dout $end
$var wire 1 0 \~QUARTUS_CREATED_ADC1~_CHSEL_bus\ [4] $end
$var wire 1 1 \~QUARTUS_CREATED_ADC1~_CHSEL_bus\ [3] $end
$var wire 1 2 \~QUARTUS_CREATED_ADC1~_CHSEL_bus\ [2] $end
$var wire 1 3 \~QUARTUS_CREATED_ADC1~_CHSEL_bus\ [1] $end
$var wire 1 4 \~QUARTUS_CREATED_ADC1~_CHSEL_bus\ [0] $end
$var wire 1 5 \~QUARTUS_CREATED_ADC2~_CHSEL_bus\ [4] $end
$var wire 1 6 \~QUARTUS_CREATED_ADC2~_CHSEL_bus\ [3] $end
$var wire 1 7 \~QUARTUS_CREATED_ADC2~_CHSEL_bus\ [2] $end
$var wire 1 8 \~QUARTUS_CREATED_ADC2~_CHSEL_bus\ [1] $end
$var wire 1 9 \~QUARTUS_CREATED_ADC2~_CHSEL_bus\ [0] $end
$var wire 1 : \CK~inputclkctrl_INCLK_bus\ [3] $end
$var wire 1 ; \CK~inputclkctrl_INCLK_bus\ [2] $end
$var wire 1 < \CK~inputclkctrl_INCLK_bus\ [1] $end
$var wire 1 = \CK~inputclkctrl_INCLK_bus\ [0] $end
$var wire 1 > \~QUARTUS_CREATED_GND~I_combout\ $end
$var wire 1 ? \~QUARTUS_CREATED_UNVM~~busy\ $end
$var wire 1 @ \~QUARTUS_CREATED_ADC1~~eoc\ $end
$var wire 1 A \~QUARTUS_CREATED_ADC2~~eoc\ $end
$var wire 1 B \Dout~output_o\ $end
$var wire 1 C \CK~input_o\ $end
$var wire 1 D \CK~inputclkctrl_outclk\ $end
$var wire 1 E \Din~input_o\ $end
$var wire 1 F \Lp1:1:U1|Q~feeder_combout\ $end
$var wire 1 G \Lp1:1:U1|Q~q\ $end
$var wire 1 H \Lp1:2:U1|Q~feeder_combout\ $end
$var wire 1 I \Lp1:2:U1|Q~q\ $end
$var wire 1 J \Lp1:3:U1|Q~feeder_combout\ $end
$var wire 1 K \Lp1:3:U1|Q~q\ $end
$var wire 1 L \Lp1:4:U1|Q~q\ $end
$var wire 1 M \Dout~0_combout\ $end
$upscope $end
$upscope $end
$enddefinitions $end
#0
$dumpvars
0!
0"
0#
0$
1%
x&
1'
1(
1)
1*
1+
1,
0-
0.
0/
0>
z?
z@
zA
0B
0C
0D
0E
0F
0G
0H
0I
0J
0K
0L
0M
1:
1;
1<
0=
00
01
02
03
04
05
06
07
08
09
$end
#10000
1!
1.
1C
1=
1D
#20000
0!
0.
0C
0=
0D
#30000
1!
1.
1C
1=
1D
#40000
0!
0.
0C
0=
0D
#50000
1!
1.
1C
1=
1D
#60000
0!
0.
0C
0=
0D
#70000
1!
1"
1.
1-
1E
1C
1=
1F
1D
1G
1H
#80000
0!
0.
0C
0=
0D
#90000
1!
1.
1C
1=
1D
1I
1J
#100000
0!
0.
0C
0=
0D
#110000
1!
1.
1C
1=
1D
1K
#120000
0!
0.
0C
0=
0D
#130000
1!
1.
1C
1=
1D
1L
1M
1B
1/
1#
#140000
0!
0.
0C
0=
0D
#150000
1!
1.
1C
1=
1D
#160000
0!
0.
0C
0=
0D
#170000
1!
1.
1C
1=
1D
#180000
0!
0.
0C
0=
0D
#190000
1!
1.
1C
1=
1D
#200000
0!
0.
0C
0=
0D
#210000
1!
1.
1C
1=
1D
#220000
0!
0.
0C
0=
0D
#230000
1!
1.
1C
1=
1D
#240000
0!
0.
0C
0=
0D
#250000
1!
1.
1C
1=
1D
#260000
0!
0.
0C
0=
0D
#270000
1!
1.
1C
1=
1D
#280000
0!
0.
0C
0=
0D
#290000
1!
1.
1C
1=
1D
#300000
0!
0.
0C
0=
0D
#310000
1!
1.
1C
1=
1D
#320000
0!
0.
0C
0=
0D
#330000
1!
1.
1C
1=
1D
#340000
0!
0.
0C
0=
0D
#350000
1!
1.
1C
1=
1D
#360000
0!
0.
0C
0=
0D
#370000
1!
1.
1C
1=
1D
#380000
0!
0.
0C
0=
0D
#390000
1!
1.
1C
1=
1D
#400000
0!
0.
0C
0=
0D
#410000
1!
1.
1C
1=
1D
#420000
0!
0.
0C
0=
0D
#430000
1!
1.
1C
1=
1D
#440000
0!
0.
0C
0=
0D
#450000
1!
1.
1C
1=
1D
#460000
0!
0"
0.
0-
0E
0C
0=
0F
0D
#470000
1!
1.
1C
1=
1D
0G
0H
0M
0B
0/
0#
#480000
0!
0.
0C
0=
0D
#490000
1!
1.
1C
1=
1D
0I
0J
#500000
0!
0.
0C
0=
0D
#510000
1!
1.
1C
1=
1D
0K
#520000
0!
0.
0C
0=
0D
#530000
1!
1.
1C
1=
1D
0L
#540000
0!
0.
0C
0=
0D
#550000
1!
1.
1C
1=
1D
#560000
0!
0.
0C
0=
0D
#570000
1!
1.
1C
1=
1D
#580000
0!
0.
0C
0=
0D
#590000
1!
1.
1C
1=
1D
#600000
0!
0.
0C
0=
0D
#610000
1!
1.
1C
1=
1D
#620000
0!
0.
0C
0=
0D
#630000
1!
1.
1C
1=
1D
#640000
0!
0.
0C
0=
0D
#650000
1!
1.
1C
1=
1D
#660000
0!
0.
0C
0=
0D
#670000
1!
1.
1C
1=
1D
#680000
0!
0.
0C
0=
0D
#690000
1!
1.
1C
1=
1D
#700000
0!
0.
0C
0=
0D
#710000
1!
1.
1C
1=
1D
#720000
0!
0.
0C
0=
0D
#730000
1!
1.
1C
1=
1D
#740000
0!
0.
0C
0=
0D
#750000
1!
1.
1C
1=
1D
#760000
0!
0.
0C
0=
0D
#770000
1!
1.
1C
1=
1D
#780000
0!
0.
0C
0=
0D
#790000
1!
1.
1C
1=
1D
#800000
0!
0.
0C
0=
0D
#810000
1!
1.
1C
1=
1D
#820000
0!
0.
0C
0=
0D
#830000
1!
1.
1C
1=
1D
#840000
0!
0.
0C
0=
0D
#850000
1!
1.
1C
1=
1D
#860000
0!
0.
0C
0=
0D
#870000
1!
1.
1C
1=
1D
#880000
0!
0.
0C
0=
0D
#890000
1!
1.
1C
1=
1D
#900000
0!
0.
0C
0=
0D
#910000
1!
1.
1C
1=
1D
#920000
0!
0.
0C
0=
0D
#930000
1!
1.
1C
1=
1D
#940000
0!
0.
0C
0=
0D
#950000
1!
1.
1C
1=
1D
#960000
0!
0.
0C
0=
0D
#970000
1!
1.
1C
1=
1D
#980000
0!
0.
0C
0=
0D
#990000
1!
1.
1C
1=
1D
