ex01/simulation/qsim/ex01.msim.vcd
$comment
	File created using the following command:
		vcd file ex01.msim.vcd -direction
$end
$date
	Wed Mar 15 15:42:41 2023
$end
$version
	ModelSim Version 10.5b
$end
$timescale
	1ps
$end

$scope module ex01_vlg_vec_tst $end
$var reg 1 ! pin01 $end
$var reg 1 " pin02 $end
$var reg 1 # pin03 $end
$var reg 1 $ pin04 $end
$var reg 1 % pin05 $end
$var reg 1 & pin06 $end
$var reg 1 ' pin07 $end
$var wire 1 ( output01 $end
$var wire 1 ) output02 $end
$var wire 1 * output03 $end
$var wire 1 + output04 $end

$scope module i1 $end
$var wire 1 , gnd $end
$var wire 1 - vcc $end
$var wire 1 . unknown $end
$var tri1 1 / devclrn $end
$var tri1 1 0 devpor $end
$var tri1 1 1 devoe $end
$var wire 1 2 ~QUARTUS_CREATED_GND~I_combout $end
$var wire 1 3 ~QUARTUS_CREATED_UNVM~~busy $end
$var wire 1 4 ~QUARTUS_CREATED_ADC1~~eoc $end
$var wire 1 5 ~QUARTUS_CREATED_ADC2~~eoc $end
$var wire 1 6 output01~output_o $end
$var wire 1 7 output02~output_o $end
$var wire 1 8 output03~output_o $end
$var wire 1 9 output04~output_o $end
$var wire 1 : pin02~input_o $end
$var wire 1 ; pin01~input_o $end
$var wire 1 < inst01~combout $end
$var wire 1 = pin03~input_o $end
$var wire 1 > pin04~input_o $end
$var wire 1 ? inst02~combout $end
$var wire 1 @ pin05~input_o $end
$var wire 1 A pin06~input_o $end
$var wire 1 B pin07~input_o $end
$var wire 1 C inst04~combout $end
$upscope $end
$upscope $end
$enddefinitions $end
#0
$dumpvars
0!
1"
0#
1$
0%
0&
1'
0(
1)
1*
1+
0,
1-
x.
1/
10
11
02
z3
z4
z5
06
17
18
19
1:
0;
0<
0=
1>
1?
0@
0A
1B
1C
$end
#25000
0"
0$
0'
0B
0>
0:
0C
0?
07
09
0+
0)
#50000
1!
1#
1%
1&
1A
1@
1=
1;
08
0*
1C
1?
17
19
1+
1)
#75000
1"
1$
1'
1B
1>
1:
0C
1<
16
09
0+
1(
#100000
0!
0#
0%
0&
0A
0@
0=
0;
18
1*
1C
0<
06
19
1+
0(
#125000
0"
0$
0'
0B
0>
0:
0C
0?
07
09
0+
0)
#150000
1!
1#
1%
1&
1A
1@
1=
1;
08
0*
1C
1?
17
19
1+
1)
#175000
1"
1$
1'
1B
1>
1:
0C
1<
16
09
0+
1(
#200000
0!
0#
0%
0&
0A
0@
0=
0;
18
1*
1C
0<
06
19
1+
0(
#225000
0"
0$
0'
0B
0>
0:
0C
0?
07
09
0+
0)
#250000
1!
1#
1%
1&
1A
1@
1=
1;
08
0*
1C
1?
17
19
1+
1)
#275000
1"
1$
1'
1B
1>
1:
0C
1<
16
09
0+
1(
#300000
0!
0#
0%
0&
0A
0@
0=
0;
18
1*
1C
0<
06
19
1+
0(
#325000
0"
0$
0'
0B
0>
0:
0C
0?
07
09
0+
0)
#350000
1!
1#
1%
1&
1A
1@
1=
1;
08
0*
1C
1?
17
19
1+
1)
#375000
1"
1$
1'
1B
1>
1:
0C
1<
16
09
0+
1(
#400000
0!
0#
0%
0&
0A
0@
0=
0;
18
1*
1C
0<
06
19
1+
0(
#425000
0"
0$
0'
0B
0>
0:
0C
0?
07
09
0+
0)
#450000
1!
1#
1%
1&
1A
1@
1=
1;
08
0*
1C
1?
17
19
1+
1)
#475000
1"
1$
1'
1B
1>
1:
0C
1<
16
09
0+
1(
#500000
0!
0#
0%
0&
0A
0@
0=
0;
18
1*
1C
0<
06
19
1+
0(
#525000
0"
0$
0'
0B
0>
0:
0C
0?
07
09
0+
0)
#550000
1!
1#
1%
1&
1A
1@
1=
1;
08
0*
1C
1?
17
19
1+
1)
#575000
1"
1$
1'
1B
1>
1:
0C
1<
16
09
0+
1(
#600000
0!
0#
0%
0&
0A
0@
0=
0;
18
1*
1C
0<
06
19
1+
0(
#625000
0"
0$
0'
0B
0>
0:
0C
0?
07
09
0+
0)
#650000
1!
1#
1%
1&
1A
1@
1=
1;
08
0*
1C
1?
17
19
1+
1)
#675000
1"
1$
1'
1B
1>
1:
0C
1<
16
09
0+
1(
#700000
0!
0#
0%
0&
0A
0@
0=
0;
18
1*
1C
0<
06
19
1+
0(
#725000
0"
0$
0'
0B
0>
0:
0C
0?
07
09
0+
0)
#750000
1!
1#
1%
1&
1A
1@
1=
1;
08
0*
1C
1?
17
19
1+
1)
#775000
1"
1$
1'
1B
1>
1:
0C
1<
16
09
0+
1(
#800000
0!
0#
0%
0&
0A
0@
0=
0;
18
1*
1C
0<
06
19
1+
0(
#825000
0"
0$
0'
0B
0>
0:
0C
0?
07
09
0+
0)
#850000
1!
1#
1%
1&
1A
1@
1=
1;
08
0*
1C
1?
17
19
1+
1)
#875000
1"
1$
1'
1B
1>
1:
0C
1<
16
09
0+
1(
#900000
0!
0#
0%
0&
0A
0@
0=
0;
18
1*
1C
0<
06
19
1+
0(
#925000
0"
0$
0'
0B
0>
0:
0C
0?
07
09
0+
0)
#950000
1!
1#
1%
1&
1A
1@
1=
1;
08
0*
1C
1?
17
19
1+
1)
#975000
1"
1$
1'
1B
1>
1:
0C
1<
16
09
0+
1(
