hw74/simulation/qsim/hw74.msim.vcd
$comment
	File created using the following command:
		vcd file hw74.msim.vcd -direction
$end
$date
	Wed Jun 07 15:54:12 2023
$end
$version
	ModelSim Version 10.5b
$end
$timescale
	1ps
$end

$scope module mealy_vhd_vec_tst $end
$var wire 1 ! CK $end
$var wire 1 " Input $end
$var wire 1 # output $end
$var wire 1 $ PSnumber [1] $end
$var wire 1 % PSnumber [0] $end

$scope module i1 $end
$var wire 1 & gnd $end
$var wire 1 ' vcc $end
$var wire 1 ( unknown $end
$var wire 1 ) devoe $end
$var wire 1 * devclrn $end
$var wire 1 + devpor $end
$var wire 1 , ww_devoe $end
$var wire 1 - ww_devclrn $end
$var wire 1 . ww_devpor $end
$var wire 1 / ww_Input $end
$var wire 1 0 ww_CK $end
$var wire 1 1 ww_PSnumber [1] $end
$var wire 1 2 ww_PSnumber [0] $end
$var wire 1 3 ww_output $end
$var wire 1 4 \~QUARTUS_CREATED_ADC1~_CHSEL_bus\ [4] $end
$var wire 1 5 \~QUARTUS_CREATED_ADC1~_CHSEL_bus\ [3] $end
$var wire 1 6 \~QUARTUS_CREATED_ADC1~_CHSEL_bus\ [2] $end
$var wire 1 7 \~QUARTUS_CREATED_ADC1~_CHSEL_bus\ [1] $end
$var wire 1 8 \~QUARTUS_CREATED_ADC1~_CHSEL_bus\ [0] $end
$var wire 1 9 \~QUARTUS_CREATED_ADC2~_CHSEL_bus\ [4] $end
$var wire 1 : \~QUARTUS_CREATED_ADC2~_CHSEL_bus\ [3] $end
$var wire 1 ; \~QUARTUS_CREATED_ADC2~_CHSEL_bus\ [2] $end
$var wire 1 < \~QUARTUS_CREATED_ADC2~_CHSEL_bus\ [1] $end
$var wire 1 = \~QUARTUS_CREATED_ADC2~_CHSEL_bus\ [0] $end
$var wire 1 > \CK~inputclkctrl_INCLK_bus\ [3] $end
$var wire 1 ? \CK~inputclkctrl_INCLK_bus\ [2] $end
$var wire 1 @ \CK~inputclkctrl_INCLK_bus\ [1] $end
$var wire 1 A \CK~inputclkctrl_INCLK_bus\ [0] $end
$var wire 1 B \~QUARTUS_CREATED_GND~I_combout\ $end
$var wire 1 C \~QUARTUS_CREATED_UNVM~~busy\ $end
$var wire 1 D \~QUARTUS_CREATED_ADC1~~eoc\ $end
$var wire 1 E \~QUARTUS_CREATED_ADC2~~eoc\ $end
$var wire 1 F \PSnumber[0]~output_o\ $end
$var wire 1 G \PSnumber[1]~output_o\ $end
$var wire 1 H \output~output_o\ $end
$var wire 1 I \CK~input_o\ $end
$var wire 1 J \CK~inputclkctrl_outclk\ $end
$var wire 1 K \Input~input_o\ $end
$var wire 1 L \Selector1~0_combout\ $end
$var wire 1 M \ns.s3~q\ $end
$var wire 1 N \ns~9_combout\ $end
$var wire 1 O \ns.s0~q\ $end
$var wire 1 P \Selector0~0_combout\ $end
$var wire 1 Q \ns.s1~q\ $end
$var wire 1 R \ns~8_combout\ $end
$var wire 1 S \ns.s2~q\ $end
$var wire 1 T \Selector3~0_combout\ $end
$var wire 1 U \PSnumber[0]~reg0_q\ $end
$var wire 1 V \Selector2~0_combout\ $end
$var wire 1 W \PSnumber[1]~reg0_q\ $end
$var wire 1 X \output~0_combout\ $end
$var wire 1 Y \output~reg0_q\ $end
$upscope $end
$upscope $end
$enddefinitions $end
#0
$dumpvars
0!
1"
0#
0&
1'
x(
1)
1*
1+
1,
1-
1.
1/
00
03
0B
zC
zD
zE
0F
0G
0H
0I
0J
1K
0L
0M
1N
0O
1P
0Q
0R
0S
1T
0U
0V
0W
0X
0Y
0$
0%
01
02
1>
1?
1@
0A
04
05
06
07
08
09
0:
0;
0<
0=
$end
#10000
0"
0/
0K
1L
0P
1V
#20000
1"
1/
1K
0L
1P
0V
#40000
0"
0/
0K
1L
0P
1V
#50000
1!
10
1I
1A
1J
1M
1O
1U
1W
1G
1F
0L
1P
0V
11
12
1%
1$
#60000
1"
1/
1K
0N
0P
0T
1X
#80000
0"
0/
0K
1N
1P
1T
0X
#90000
1"
1/
1K
0N
0P
0T
1X
#100000
0!
00
0I
0A
0J
#140000
0"
0/
0K
1N
1P
1T
0X
#150000
1!
10
1I
1A
1J
0M
1Q
0W
0G
01
0$
#160000
1"
1/
1K
0P
1R
0T
1V
1X
#170000
0"
0/
0K
1P
0R
1T
0V
0X
#190000
1"
1/
1K
0P
1R
0T
1V
1X
#200000
0"
0!
0/
00
0I
0K
0A
1P
0R
1T
0V
0X
0J
#210000
1"
1/
1K
0P
1R
0T
1V
1X
#220000
0"
0/
0K
1P
0R
1T
0V
0X
#230000
1"
1/
1K
0P
1R
0T
1V
1X
#250000
0"
1!
0/
10
1I
0K
1A
1P
0R
1T
0V
0X
1J
#280000
1"
1/
1K
0P
1R
0T
1V
1X
#290000
0"
0/
0K
1P
0R
1T
0V
0X
#300000
1"
0!
1/
00
0I
1K
0A
0P
1R
0T
1V
1X
0J
#330000
0"
0/
0K
1P
0R
1T
0V
0X
#340000
1"
1/
1K
0P
1R
0T
1V
1X
#350000
0"
1!
0/
10
1I
0K
1A
1P
0R
1T
0V
0X
1J
#360000
1"
1/
1K
0P
1R
0T
1V
1X
#370000
0"
0/
0K
1P
0R
1T
0V
0X
#400000
0!
00
0I
0A
0J
#410000
1"
1/
1K
0P
1R
0T
1V
1X
#450000
0"
1!
0/
10
1I
0K
1A
1P
0R
1T
0V
0X
1J
#460000
1"
1/
1K
0P
1R
0T
1V
1X
#490000
0"
0/
0K
1P
0R
1T
0V
0X
#500000
1"
0!
1/
00
0I
1K
0A
0P
1R
0T
1V
1X
0J
#510000
0"
0/
0K
1P
0R
1T
0V
0X
#540000
1"
1/
1K
0P
1R
0T
1V
1X
#550000
0"
1!
0/
10
1I
0K
1A
1P
0R
1T
0V
0X
1J
#560000
1"
1/
1K
0P
1R
0T
1V
1X
#600000
0"
0!
0/
00
0I
0K
0A
1P
0R
1T
0V
0X
0J
#640000
1"
1/
1K
0P
1R
0T
1V
1X
#650000
1!
10
1I
1A
1J
0Q
1S
0U
1W
1Y
1H
1G
0F
1L
1T
0R
13
11
02
0X
1#
0%
1$
#700000
0!
00
0I
0A
0J
#750000
1!
10
1I
1A
1J
1M
0S
1U
0Y
0H
1F
0L
0T
0V
0N
03
12
1X
0#
1%
#790000
0"
0/
0K
1N
1P
1T
0X
#800000
0!
00
0I
0A
0J
#820000
1"
1/
1K
0N
0P
0T
1X
#850000
1!
10
1I
1A
1J
0M
0O
0U
0W
1Y
1H
0G
0F
1P
1T
1N
13
01
02
0X
1#
0%
0$
#860000
0"
0/
0K
1L
0P
1V
#880000
1"
1/
1K
0L
1P
0V
#900000
0"
0!
0/
00
0I
0K
0A
1L
0P
1V
0J
#920000
1"
1/
1K
0L
1P
0V
#940000
0"
0/
0K
1L
0P
1V
#950000
1"
1!
1/
10
1I
1K
1A
0L
1P
0V
1J
1O
1Q
1U
0Y
0H
1F
1R
0P
0T
1V
03
12
1X
0#
1%
#970000
0"
0/
0K
1P
0R
1T
0V
0X
#990000
1"
1/
1K
0P
1R
0T
1V
1X
