hw603/simulation/qsim/hw603.msim.vcd
$comment
	File created using the following command:
		vcd file hw603.msim.vcd -direction
$end
$date
	Wed Mar 29 16:53:47 2023
$end
$version
	ModelSim Version 10.5b
$end
$timescale
	1ps
$end

$scope module hw603_vlg_vec_tst $end
$var reg 1 ! i $end
$var reg 1 " s0 $end
$var reg 1 # s1 $end
$var wire 1 $ q0 $end
$var wire 1 % q1 $end
$var wire 1 & q2 $end
$var wire 1 ' q3 $end

$scope module i1 $end
$var wire 1 ( gnd $end
$var wire 1 ) vcc $end
$var wire 1 * unknown $end
$var tri1 1 + devclrn $end
$var tri1 1 , devpor $end
$var tri1 1 - devoe $end
$var wire 1 . ~QUARTUS_CREATED_GND~I_combout $end
$var wire 1 / ~QUARTUS_CREATED_UNVM~~busy $end
$var wire 1 0 ~QUARTUS_CREATED_ADC1~~eoc $end
$var wire 1 1 ~QUARTUS_CREATED_ADC2~~eoc $end
$var wire 1 2 q0~output_o $end
$var wire 1 3 q1~output_o $end
$var wire 1 4 q2~output_o $end
$var wire 1 5 q3~output_o $end
$var wire 1 6 s0~input_o $end
$var wire 1 7 s1~input_o $end
$var wire 1 8 i~input_o $end
$var wire 1 9 inst6~combout $end
$var wire 1 : inst4~0_combout $end
$var wire 1 ; inst4~1_combout $end
$var wire 1 < inst4~2_combout $end
$upscope $end
$upscope $end
$enddefinitions $end
#0
$dumpvars
0!
0"
0#
0$
0%
0&
0'
0(
1)
x*
1+
1,
1-
0.
z/
z0
z1
02
03
04
05
06
07
08
09
0:
0;
0<
$end
#5000
1!
18
19
12
1$
#10000
0!
08
09
02
0$
#15000
1!
18
19
12
1$
#20000
0!
08
09
02
0$
#25000
1!
18
19
12
1$
#30000
0!
08
09
02
0$
#35000
1!
18
19
12
1$
#40000
1"
0!
08
16
09
02
0$
#45000
1!
18
1:
13
1%
#50000
0!
08
0:
03
0%
#55000
1!
18
1:
13
1%
#60000
0!
08
0:
03
0%
#65000
1!
18
1:
13
1%
#70000
0!
08
0:
03
0%
#75000
1!
18
1:
13
1%
#80000
1#
0"
0!
08
06
17
0:
03
0%
#85000
1!
18
1;
14
1&
#90000
0!
08
0;
04
0&
#95000
1!
18
1;
14
1&
#100000
0!
08
0;
04
0&
#105000
1!
18
1;
14
1&
#110000
0!
08
0;
04
0&
#115000
1!
18
1;
14
1&
#120000
1"
0!
08
16
0;
04
0&
#125000
1!
18
1<
15
1'
#130000
0!
08
0<
05
0'
#135000
1!
18
1<
15
1'
#140000
0!
08
0<
05
0'
#145000
1!
18
1<
15
1'
#150000
0!
08
0<
05
0'
#155000
1!
18
1<
15
1'
#160000
0#
0"
0!
08
06
07
0<
05
0'
#165000
1!
18
19
12
1$
#170000
0!
08
09
02
0$
#175000
1!
18
19
12
1$
#180000
0!
08
09
02
0$
#185000
1!
18
19
12
1$
#190000
0!
08
09
02
0$
#195000
1!
18
19
12
1$
#200000
1"
0!
08
16
09
02
0$
#205000
1!
18
1:
13
1%
#210000
0!
08
0:
03
0%
#215000
1!
18
1:
13
1%
#220000
0!
08
0:
03
0%
#225000
1!
18
1:
13
1%
#230000
0!
08
0:
03
0%
#235000
1!
18
1:
13
1%
#240000
1#
0"
0!
08
06
17
0:
03
0%
#245000
1!
18
1;
14
1&
#250000
0!
08
0;
04
0&
#255000
1!
18
1;
14
1&
#260000
0!
08
0;
04
0&
#265000
1!
18
1;
14
1&
#270000
0!
08
0;
04
0&
#275000
1!
18
1;
14
1&
#280000
1"
0!
08
16
0;
04
0&
#285000
1!
18
1<
15
1'
#290000
0!
08
0<
05
0'
#295000
1!
18
1<
15
1'
#300000
0!
08
0<
05
0'
#305000
1!
18
1<
15
1'
#310000
0!
08
0<
05
0'
#315000
1!
18
1<
15
1'
#320000
0#
0"
0!
08
06
07
0<
05
0'
#325000
1!
18
19
12
1$
#330000
0!
08
09
02
0$
#335000
1!
18
19
12
1$
#340000
0!
08
09
02
0$
#345000
1!
18
19
12
1$
#350000
0!
08
09
02
0$
#355000
1!
18
19
12
1$
#360000
1"
0!
08
16
09
02
0$
#365000
1!
18
1:
13
1%
#370000
0!
08
0:
03
0%
#375000
1!
18
1:
13
1%
#380000
0!
08
0:
03
0%
#385000
1!
18
1:
13
1%
#390000
0!
08
0:
03
0%
#395000
1!
18
1:
13
1%
#400000
1#
0"
0!
08
06
17
0:
03
0%
#405000
1!
18
1;
14
1&
#410000
0!
08
0;
04
0&
#415000
1!
18
1;
14
1&
#420000
0!
08
0;
04
0&
#425000
1!
18
1;
14
1&
#430000
0!
08
0;
04
0&
#435000
1!
18
1;
14
1&
#440000
1"
0!
08
16
0;
04
0&
#445000
1!
18
1<
15
1'
#450000
0!
08
0<
05
0'
#455000
1!
18
1<
15
1'
#460000
0!
08
0<
05
0'
#465000
1!
18
1<
15
1'
#470000
0!
08
0<
05
0'
#475000
1!
18
1<
15
1'
#480000
0#
0"
0!
08
06
07
0<
05
0'
#485000
1!
18
19
12
1$
#490000
0!
08
09
02
0$
#495000
1!
18
19
12
1$
#500000
0!
08
09
02
0$
#505000
1!
18
19
12
1$
#510000
0!
08
09
02
0$
#515000
1!
18
19
12
1$
#520000
1"
0!
08
16
09
02
0$
#525000
1!
18
1:
13
1%
#530000
0!
08
0:
03
0%
#535000
1!
18
1:
13
1%
#540000
0!
08
0:
03
0%
#545000
1!
18
1:
13
1%
#550000
0!
08
0:
03
0%
#555000
1!
18
1:
13
1%
#560000
1#
0"
0!
08
06
17
0:
03
0%
#565000
1!
18
1;
14
1&
#570000
0!
08
0;
04
0&
#575000
1!
18
1;
14
1&
#580000
0!
08
0;
04
0&
#585000
1!
18
1;
14
1&
#590000
0!
08
0;
04
0&
#595000
1!
18
1;
14
1&
#600000
1"
0!
08
16
0;
04
0&
#605000
1!
18
1<
15
1'
#610000
0!
08
0<
05
0'
#615000
1!
18
1<
15
1'
#620000
0!
08
0<
05
0'
#625000
1!
18
1<
15
1'
#630000
0!
08
0<
05
0'
#635000
1!
18
1<
15
1'
#640000
0#
0"
0!
08
06
07
0<
05
0'
#645000
1!
18
19
12
1$
#650000
0!
08
09
02
0$
#655000
1!
18
19
12
1$
#660000
0!
08
09
02
0$
#665000
1!
18
19
12
1$
#670000
0!
08
09
02
0$
#675000
1!
18
19
12
1$
#680000
1"
0!
08
16
09
02
0$
#685000
1!
18
1:
13
1%
#690000
0!
08
0:
03
0%
#695000
1!
18
1:
13
1%
#700000
0!
08
0:
03
0%
#705000
1!
18
1:
13
1%
#710000
0!
08
0:
03
0%
#715000
1!
18
1:
13
1%
#720000
1#
0"
0!
08
06
17
0:
03
0%
#725000
1!
18
1;
14
1&
#730000
0!
08
0;
04
0&
#735000
1!
18
1;
14
1&
#740000
0!
08
0;
04
0&
#745000
1!
18
1;
14
1&
#750000
0!
08
0;
04
0&
#755000
1!
18
1;
14
1&
#760000
1"
0!
08
16
0;
04
0&
#765000
1!
18
1<
15
1'
#770000
0!
08
0<
05
0'
#775000
1!
18
1<
15
1'
#780000
0!
08
0<
05
0'
#785000
1!
18
1<
15
1'
#790000
0!
08
0<
05
0'
#795000
1!
18
1<
15
1'
#800000
0#
0"
0!
08
06
07
0<
05
0'
#805000
1!
18
19
12
1$
#810000
0!
08
09
02
0$
#815000
1!
18
19
12
1$
#820000
0!
08
09
02
0$
#825000
1!
18
19
12
1$
#830000
0!
08
09
02
0$
#835000
1!
18
19
12
1$
#840000
1"
0!
08
16
09
02
0$
#845000
1!
18
1:
13
1%
#850000
0!
08
0:
03
0%
#855000
1!
18
1:
13
1%
#860000
0!
08
0:
03
0%
#865000
1!
18
1:
13
1%
#870000
0!
08
0:
03
0%
#875000
1!
18
1:
13
1%
#880000
1#
0"
0!
08
06
17
0:
03
0%
#885000
1!
18
1;
14
1&
#890000
0!
08
0;
04
0&
#895000
1!
18
1;
14
1&
#900000
0!
08
0;
04
0&
#905000
1!
18
1;
14
1&
#910000
0!
08
0;
04
0&
#915000
1!
18
1;
14
1&
#920000
1"
0!
08
16
0;
04
0&
#925000
1!
18
1<
15
1'
#930000
0!
08
0<
05
0'
#935000
1!
18
1<
15
1'
#940000
0!
08
0<
05
0'
#945000
1!
18
1<
15
1'
#950000
0!
08
0<
05
0'
#955000
1!
18
1<
15
1'
#960000
0#
0"
0!
08
06
07
0<
05
0'
#965000
1!
18
19
12
1$
#970000
0!
08
09
02
0$
#975000
1!
18
19
12
1$
#980000
0!
08
09
02
0$
#985000
1!
18
19
12
1$
#990000
0!
08
09
02
0$
#995000
1!
18
19
12
1$
