hw5/simulation/qsim/hw5.msim.vcd
$comment
	File created using the following command:
		vcd file hw5.msim.vcd -direction
$end
$date
	Wed Mar 22 16:54:56 2023
$end
$version
	ModelSim Version 10.5b
$end
$timescale
	1ps
$end

$scope module hw5_vlg_vec_tst $end
$var reg 1 ! A $end
$var reg 1 " B $end
$var reg 1 # C $end
$var reg 1 $ EN $end
$var wire 1 % Q0 $end
$var wire 1 & Q1 $end
$var wire 1 ' Q2 $end
$var wire 1 ( Q3 $end
$var wire 1 ) Q4 $end
$var wire 1 * Q5 $end
$var wire 1 + Q6 $end
$var wire 1 , Q7 $end

$scope module i1 $end
$var wire 1 - gnd $end
$var wire 1 . vcc $end
$var wire 1 / unknown $end
$var tri1 1 0 devclrn $end
$var tri1 1 1 devpor $end
$var tri1 1 2 devoe $end
$var wire 1 3 ~QUARTUS_CREATED_GND~I_combout $end
$var wire 1 4 ~QUARTUS_CREATED_UNVM~~busy $end
$var wire 1 5 ~QUARTUS_CREATED_ADC1~~eoc $end
$var wire 1 6 ~QUARTUS_CREATED_ADC2~~eoc $end
$var wire 1 7 Q0~output_o $end
$var wire 1 8 Q1~output_o $end
$var wire 1 9 Q2~output_o $end
$var wire 1 : Q3~output_o $end
$var wire 1 ; Q4~output_o $end
$var wire 1 < Q5~output_o $end
$var wire 1 = Q6~output_o $end
$var wire 1 > Q7~output_o $end
$var wire 1 ? EN~input_o $end
$var wire 1 @ B~input_o $end
$var wire 1 A C~input_o $end
$var wire 1 B A~input_o $end
$var wire 1 C inst8~combout $end
$var wire 1 D inst7~combout $end
$var wire 1 E inst3~combout $end
$var wire 1 F inst4~combout $end
$var wire 1 G inst5~combout $end
$var wire 1 H inst6~combout $end
$var wire 1 I inst9~combout $end
$var wire 1 J inst10~combout $end
$upscope $end
$upscope $end
$enddefinitions $end
#0
$dumpvars
0!
0"
0#
0$
0%
0&
0'
0(
0)
0*
0+
0,
0-
1.
x/
10
11
12
03
z4
z5
z6
07
08
09
0:
0;
0<
0=
0>
0?
0@
0A
0B
0C
0D
0E
0F
0G
0H
0I
0J
$end
#10000
1!
1B
#20000
1"
0!
0B
1@
#30000
1!
1B
#40000
1#
0"
0!
0B
0@
1A
#50000
1!
1B
#60000
1"
0!
0B
1@
#70000
1!
1B
#80000
1$
0#
0"
0!
0B
0@
0A
1?
1C
17
1%
#90000
1!
1B
1D
0C
07
18
1&
0%
#100000
1"
0!
0B
1@
1E
0D
08
19
1'
0&
#110000
1!
1B
1F
0E
09
1:
1(
0'
#120000
1#
0"
0!
0B
0@
1A
1G
0F
0:
1;
1)
0(
#130000
1!
1B
1H
0G
0;
1<
1*
0)
#140000
1"
0!
0B
1@
1I
0H
0<
1=
1+
0*
#150000
1!
1B
1J
0I
0=
1>
1,
0+
#160000
0$
0#
0"
0!
0B
0@
0A
0?
0J
0>
0,
#170000
1!
1B
#180000
1"
0!
0B
1@
#190000
1!
1B
#200000
1#
0"
0!
0B
0@
1A
#210000
1!
1B
#220000
1"
0!
0B
1@
#230000
1!
1B
#240000
1$
0#
0"
0!
0B
0@
0A
1?
1C
17
1%
#250000
1!
1B
1D
0C
07
18
1&
0%
#260000
1"
0!
0B
1@
1E
0D
08
19
1'
0&
#270000
1!
1B
1F
0E
09
1:
1(
0'
#280000
1#
0"
0!
0B
0@
1A
1G
0F
0:
1;
1)
0(
#290000
1!
1B
1H
0G
0;
1<
1*
0)
#300000
1"
0!
0B
1@
1I
0H
0<
1=
1+
0*
#310000
1!
1B
1J
0I
0=
1>
1,
0+
#320000
0$
0#
0"
0!
0B
0@
0A
0?
0J
0>
0,
#330000
1!
1B
#340000
1"
0!
0B
1@
#350000
1!
1B
#360000
1#
0"
0!
0B
0@
1A
#370000
1!
1B
#380000
1"
0!
0B
1@
#390000
1!
1B
#400000
1$
0#
0"
0!
0B
0@
0A
1?
1C
17
1%
#410000
1!
1B
1D
0C
07
18
1&
0%
#420000
1"
0!
0B
1@
1E
0D
08
19
1'
0&
#430000
1!
1B
1F
0E
09
1:
1(
0'
#440000
1#
0"
0!
0B
0@
1A
1G
0F
0:
1;
1)
0(
#450000
1!
1B
1H
0G
0;
1<
1*
0)
#460000
1"
0!
0B
1@
1I
0H
0<
1=
1+
0*
#470000
1!
1B
1J
0I
0=
1>
1,
0+
#480000
0$
0#
0"
0!
0B
0@
0A
0?
0J
0>
0,
#490000
1!
1B
#500000
1"
0!
0B
1@
#510000
1!
1B
#520000
1#
0"
0!
0B
0@
1A
#530000
1!
1B
#540000
1"
0!
0B
1@
#550000
1!
1B
#560000
1$
0#
0"
0!
0B
0@
0A
1?
1C
17
1%
#570000
1!
1B
1D
0C
07
18
1&
0%
#580000
1"
0!
0B
1@
1E
0D
08
19
1'
0&
#590000
1!
1B
1F
0E
09
1:
1(
0'
#600000
1#
0"
0!
0B
0@
1A
1G
0F
0:
1;
1)
0(
#610000
1!
1B
1H
0G
0;
1<
1*
0)
#620000
1"
0!
0B
1@
1I
0H
0<
1=
1+
0*
#630000
1!
1B
1J
0I
0=
1>
1,
0+
#640000
0$
0#
0"
0!
0B
0@
0A
0?
0J
0>
0,
#650000
1!
1B
#660000
1"
0!
0B
1@
#670000
1!
1B
#680000
1#
0"
0!
0B
0@
1A
#690000
1!
1B
#700000
1"
0!
0B
1@
#710000
1!
1B
#720000
1$
0#
0"
0!
0B
0@
0A
1?
1C
17
1%
#730000
1!
1B
1D
0C
07
18
1&
0%
#740000
1"
0!
0B
1@
1E
0D
08
19
1'
0&
#750000
1!
1B
1F
0E
09
1:
1(
0'
#760000
1#
0"
0!
0B
0@
1A
1G
0F
0:
1;
1)
0(
#770000
1!
1B
1H
0G
0;
1<
1*
0)
#780000
1"
0!
0B
1@
1I
0H
0<
1=
1+
0*
#790000
1!
1B
1J
0I
0=
1>
1,
0+
#800000
0$
0#
0"
0!
0B
0@
0A
0?
0J
0>
0,
#810000
1!
1B
#820000
1"
0!
0B
1@
#830000
1!
1B
#840000
1#
0"
0!
0B
0@
1A
#850000
1!
1B
#860000
1"
0!
0B
1@
#870000
1!
1B
#880000
1$
0#
0"
0!
0B
0@
0A
1?
1C
17
1%
#890000
1!
1B
1D
0C
07
18
1&
0%
#900000
1"
0!
0B
1@
1E
0D
08
19
1'
0&
#910000
1!
1B
1F
0E
09
1:
1(
0'
#920000
1#
0"
0!
0B
0@
1A
1G
0F
0:
1;
1)
0(
#930000
1!
1B
1H
0G
0;
1<
1*
0)
#940000
1"
0!
0B
1@
1I
0H
0<
1=
1+
0*
#950000
1!
1B
1J
0I
0=
1>
1,
0+
#960000
0$
0#
0"
0!
0B
0@
0A
0?
0J
0>
0,
#970000
1!
1B
#980000
1"
0!
0B
1@
#990000
1!
1B
