hw801/simulation/qsim/DFF1.msim.vcd
$comment
	File created using the following command:
		vcd file DFF1.msim.vcd -direction
$end
$date
	Wed May 03 17:29:03 2023
$end
$version
	ModelSim Version 10.5b
$end
$timescale
	1ps
$end

$scope module mod12_vhd_vec_tst $end
$var wire 1 ! PulseIN $end
$var wire 1 " Q [3] $end
$var wire 1 # Q [2] $end
$var wire 1 $ Q [1] $end
$var wire 1 % Q [0] $end

$scope module i1 $end
$var wire 1 & gnd $end
$var wire 1 ' vcc $end
$var wire 1 ( unknown $end
$var wire 1 ) devoe $end
$var wire 1 * devclrn $end
$var wire 1 + devpor $end
$var wire 1 , ww_devoe $end
$var wire 1 - ww_devclrn $end
$var wire 1 . ww_devpor $end
$var wire 1 / ww_PulseIN $end
$var wire 1 0 ww_Q [3] $end
$var wire 1 1 ww_Q [2] $end
$var wire 1 2 ww_Q [1] $end
$var wire 1 3 ww_Q [0] $end
$var wire 1 4 \~QUARTUS_CREATED_ADC1~_CHSEL_bus\ [4] $end
$var wire 1 5 \~QUARTUS_CREATED_ADC1~_CHSEL_bus\ [3] $end
$var wire 1 6 \~QUARTUS_CREATED_ADC1~_CHSEL_bus\ [2] $end
$var wire 1 7 \~QUARTUS_CREATED_ADC1~_CHSEL_bus\ [1] $end
$var wire 1 8 \~QUARTUS_CREATED_ADC1~_CHSEL_bus\ [0] $end
$var wire 1 9 \~QUARTUS_CREATED_ADC2~_CHSEL_bus\ [4] $end
$var wire 1 : \~QUARTUS_CREATED_ADC2~_CHSEL_bus\ [3] $end
$var wire 1 ; \~QUARTUS_CREATED_ADC2~_CHSEL_bus\ [2] $end
$var wire 1 < \~QUARTUS_CREATED_ADC2~_CHSEL_bus\ [1] $end
$var wire 1 = \~QUARTUS_CREATED_ADC2~_CHSEL_bus\ [0] $end
$var wire 1 > \~QUARTUS_CREATED_GND~I_combout\ $end
$var wire 1 ? \~QUARTUS_CREATED_UNVM~~busy\ $end
$var wire 1 @ \~QUARTUS_CREATED_ADC1~~eoc\ $end
$var wire 1 A \~QUARTUS_CREATED_ADC2~~eoc\ $end
$var wire 1 B \Q[0]~output_o\ $end
$var wire 1 C \Q[1]~output_o\ $end
$var wire 1 D \Q[2]~output_o\ $end
$var wire 1 E \Q[3]~output_o\ $end
$var wire 1 F \PulseIN~input_o\ $end
$var wire 1 G \LP1:0:U|TMP~0_combout\ $end
$var wire 1 H \LP1:0:U|TMP~feeder_combout\ $end
$var wire 1 I \LP1:1:U|TMP~0_combout\ $end
$var wire 1 J \LP1:1:U|TMP~feeder_combout\ $end
$var wire 1 K \LP1:1:U|TMP~q\ $end
$var wire 1 L \LP1:2:U|TMP~0_combout\ $end
$var wire 1 M \LP1:2:U|TMP~feeder_combout\ $end
$var wire 1 N \LP1:2:U|TMP~q\ $end
$var wire 1 O \LP1:3:U|TMP~0_combout\ $end
$var wire 1 P \LP1:3:U|TMP~q\ $end
$var wire 1 Q \CL~combout\ $end
$var wire 1 R \LP1:0:U|TMP~q\ $end
$var wire 1 S \ALT_INV_CL~combout\ $end
$var wire 1 T \LP1:2:U|ALT_INV_TMP~q\ $end
$var wire 1 U \LP1:1:U|ALT_INV_TMP~q\ $end
$var wire 1 V \LP1:0:U|ALT_INV_TMP~q\ $end
$upscope $end
$upscope $end
$enddefinitions $end
#0
$dumpvars
0!
0&
1'
x(
1)
1*
1+
1,
1-
1.
0/
0>
z?
z@
zA
0B
0C
0D
0E
0F
1G
1H
1I
1J
0K
1L
1M
0N
1O
0P
0Q
0R
1S
1T
1U
1V
0"
0#
0$
0%
00
01
02
03
04
05
06
07
08
09
0:
0;
0<
0=
$end
#5000
1!
1/
1F
1R
0V
1B
0G
13
0H
1%
#10000
0!
0/
0F
#15000
1!
1/
1F
0R
1V
0B
1G
1K
03
1H
0U
0%
1C
0I
12
0J
1$
#20000
0!
0/
0F
#25000
1!
1/
1F
1R
0V
1B
0G
13
0H
1%
#30000
0!
0/
0F
#35000
1!
1/
1F
0R
1V
0B
1G
0K
03
1H
1U
0%
0C
1I
1N
02
1J
0T
0$
1D
0L
11
0M
1#
#40000
0!
0/
0F
#45000
1!
1/
1F
1R
0V
1B
0G
13
0H
1%
#50000
0!
0/
0F
#55000
1!
1/
1F
0R
1V
0B
1G
1K
03
1H
0U
0%
1C
0I
12
0J
1$
#60000
0!
0/
0F
#65000
1!
1/
1F
1R
0V
1B
0G
13
0H
1%
#70000
0!
0/
0F
#75000
1!
1/
1F
0R
1V
0B
1G
0K
03
1H
1U
0%
0C
1I
0N
02
1J
1T
0$
0D
1L
1P
01
1M
0#
1E
0O
10
1"
#80000
0!
0/
0F
#85000
1!
1/
1F
1R
0V
1B
0G
13
0H
1%
#90000
0!
0/
0F
#95000
1!
1/
1F
0R
1V
0B
1G
1K
03
1H
0U
0%
1C
0I
12
0J
1$
#100000
0!
0/
0F
#105000
1!
1/
1F
1R
0V
1B
0G
13
0H
1%
#110000
0!
0/
0F
#115000
1!
1/
1F
0R
1V
0B
1G
0K
03
1H
1U
0%
0C
1I
1N
02
1J
0T
0$
1D
0L
1Q
0S
11
0M
1#
0N
0P
1T
0E
0D
1O
1L
0Q
1S
00
01
1M
0#
0"
#120000
0!
0/
0F
#125000
1!
1/
1F
1R
0V
1B
0G
13
0H
1%
#130000
0!
0/
0F
#135000
1!
1/
1F
0R
1V
0B
1G
1K
03
1H
0U
0%
1C
0I
12
0J
1$
#140000
0!
0/
0F
#145000
1!
1/
1F
1R
0V
1B
0G
13
0H
1%
#150000
0!
0/
0F
#155000
1!
1/
1F
0R
1V
0B
1G
0K
03
1H
1U
0%
0C
1I
1N
02
1J
0T
0$
1D
0L
11
0M
1#
#160000
0!
0/
0F
#165000
1!
1/
1F
1R
0V
1B
0G
13
0H
1%
#170000
0!
0/
0F
#175000
1!
1/
1F
0R
1V
0B
1G
1K
03
1H
0U
0%
1C
0I
12
0J
1$
#180000
0!
0/
0F
#185000
1!
1/
1F
1R
0V
1B
0G
13
0H
1%
#190000
0!
0/
0F
#195000
1!
1/
1F
0R
1V
0B
1G
0K
03
1H
1U
0%
0C
1I
0N
02
1J
1T
0$
0D
1L
1P
01
1M
0#
1E
0O
10
1"
#200000
0!
0/
0F
#205000
1!
1/
1F
1R
0V
1B
0G
13
0H
1%
#210000
0!
0/
0F
#215000
1!
1/
1F
0R
1V
0B
1G
1K
03
1H
0U
0%
1C
0I
12
0J
1$
#220000
0!
0/
0F
#225000
1!
1/
1F
1R
0V
1B
0G
13
0H
1%
#230000
0!
0/
0F
#235000
1!
1/
1F
0R
1V
0B
1G
0K
03
1H
1U
0%
0C
1I
1N
02
1J
0T
0$
1D
0L
1Q
0S
11
0M
1#
0N
0P
1T
0E
0D
1O
1L
0Q
1S
00
01
1M
0#
0"
#240000
0!
0/
0F
#245000
1!
1/
1F
1R
0V
1B
0G
13
0H
1%
#250000
0!
0/
0F
#255000
1!
1/
1F
0R
1V
0B
1G
1K
03
1H
0U
0%
1C
0I
12
0J
1$
#260000
0!
0/
0F
#265000
1!
1/
1F
1R
0V
1B
0G
13
0H
1%
#270000
0!
0/
0F
#275000
1!
1/
1F
0R
1V
0B
1G
0K
03
1H
1U
0%
0C
1I
1N
02
1J
0T
0$
1D
0L
11
0M
1#
#280000
0!
0/
0F
#285000
1!
1/
1F
1R
0V
1B
0G
13
0H
1%
#290000
0!
0/
0F
#295000
1!
1/
1F
0R
1V
0B
1G
1K
03
1H
0U
0%
1C
0I
12
0J
1$
#300000
0!
0/
0F
#305000
1!
1/
1F
1R
0V
1B
0G
13
0H
1%
#310000
0!
0/
0F
#315000
1!
1/
1F
0R
1V
0B
1G
0K
03
1H
1U
0%
0C
1I
0N
02
1J
1T
0$
0D
1L
1P
01
1M
0#
1E
0O
10
1"
#320000
0!
0/
0F
#325000
1!
1/
1F
1R
0V
1B
0G
13
0H
1%
#330000
0!
0/
0F
#335000
1!
1/
1F
0R
1V
0B
1G
1K
03
1H
0U
0%
1C
0I
12
0J
1$
#340000
0!
0/
0F
#345000
1!
1/
1F
1R
0V
1B
0G
13
0H
1%
#350000
0!
0/
0F
#355000
1!
1/
1F
0R
1V
0B
1G
0K
03
1H
1U
0%
0C
1I
1N
02
1J
0T
0$
1D
0L
1Q
0S
11
0M
1#
0N
0P
1T
0E
0D
1O
1L
0Q
1S
00
01
1M
0#
0"
#360000
0!
0/
0F
#365000
1!
1/
1F
1R
0V
1B
0G
13
0H
1%
#370000
0!
0/
0F
#375000
1!
1/
1F
0R
1V
0B
1G
1K
03
1H
0U
0%
1C
0I
12
0J
1$
#380000
0!
0/
0F
#385000
1!
1/
1F
1R
0V
1B
0G
13
0H
1%
#390000
0!
0/
0F
#395000
1!
1/
1F
0R
1V
0B
1G
0K
03
1H
1U
0%
0C
1I
1N
02
1J
0T
0$
1D
0L
11
0M
1#
#400000
0!
0/
0F
#405000
1!
1/
1F
1R
0V
1B
0G
13
0H
1%
#410000
0!
0/
0F
#415000
1!
1/
1F
0R
1V
0B
1G
1K
03
1H
0U
0%
1C
0I
12
0J
1$
#420000
0!
0/
0F
#425000
1!
1/
1F
1R
0V
1B
0G
13
0H
1%
#430000
0!
0/
0F
#435000
1!
1/
1F
0R
1V
0B
1G
0K
03
1H
1U
0%
0C
1I
0N
02
1J
1T
0$
0D
1L
1P
01
1M
0#
1E
0O
10
1"
#440000
0!
0/
0F
#445000
1!
1/
1F
1R
0V
1B
0G
13
0H
1%
#450000
0!
0/
0F
#455000
1!
1/
1F
0R
1V
0B
1G
1K
03
1H
0U
0%
1C
0I
12
0J
1$
#460000
0!
0/
0F
#465000
1!
1/
1F
1R
0V
1B
0G
13
0H
1%
#470000
0!
0/
0F
#475000
1!
1/
1F
0R
1V
0B
1G
0K
03
1H
1U
0%
0C
1I
1N
02
1J
0T
0$
1D
0L
1Q
0S
11
0M
1#
0N
0P
1T
0E
0D
1O
1L
0Q
1S
00
01
1M
0#
0"
#480000
0!
0/
0F
#485000
1!
1/
1F
1R
0V
1B
0G
13
0H
1%
#490000
0!
0/
0F
#495000
1!
1/
1F
0R
1V
0B
1G
1K
03
1H
0U
0%
1C
0I
12
0J
1$
#500000
0!
0/
0F
#505000
1!
1/
1F
1R
0V
1B
0G
13
0H
1%
#510000
0!
0/
0F
#515000
1!
1/
1F
0R
1V
0B
1G
0K
03
1H
1U
0%
0C
1I
1N
02
1J
0T
0$
1D
0L
11
0M
1#
#520000
0!
0/
0F
#525000
1!
1/
1F
1R
0V
1B
0G
13
0H
1%
#530000
0!
0/
0F
#535000
1!
1/
1F
0R
1V
0B
1G
1K
03
1H
0U
0%
1C
0I
12
0J
1$
#540000
0!
0/
0F
#545000
1!
1/
1F
1R
0V
1B
0G
13
0H
1%
#550000
0!
0/
0F
#555000
1!
1/
1F
0R
1V
0B
1G
0K
03
1H
1U
0%
0C
1I
0N
02
1J
1T
0$
0D
1L
1P
01
1M
0#
1E
0O
10
1"
#560000
0!
0/
0F
#565000
1!
1/
1F
1R
0V
1B
0G
13
0H
1%
#570000
0!
0/
0F
#575000
1!
1/
1F
0R
1V
0B
1G
1K
03
1H
0U
0%
1C
0I
12
0J
1$
#580000
0!
0/
0F
#585000
1!
1/
1F
1R
0V
1B
0G
13
0H
1%
#590000
0!
0/
0F
#595000
1!
1/
1F
0R
1V
0B
1G
0K
03
1H
1U
0%
0C
1I
1N
02
1J
0T
0$
1D
0L
1Q
0S
11
0M
1#
0N
0P
1T
0E
0D
1O
1L
0Q
1S
00
01
1M
0#
0"
#600000
0!
0/
0F
#605000
1!
1/
1F
1R
0V
1B
0G
13
0H
1%
#610000
0!
0/
0F
#615000
1!
1/
1F
0R
1V
0B
1G
1K
03
1H
0U
0%
1C
0I
12
0J
1$
#620000
0!
0/
0F
#625000
1!
1/
1F
1R
0V
1B
0G
13
0H
1%
#630000
0!
0/
0F
#635000
1!
1/
1F
0R
1V
0B
1G
0K
03
1H
1U
0%
0C
1I
1N
02
1J
0T
0$
1D
0L
11
0M
1#
#640000
0!
0/
0F
#645000
1!
1/
1F
1R
0V
1B
0G
13
0H
1%
#650000
0!
0/
0F
#655000
1!
1/
1F
0R
1V
0B
1G
1K
03
1H
0U
0%
1C
0I
12
0J
1$
#660000
0!
0/
0F
#665000
1!
1/
1F
1R
0V
1B
0G
13
0H
1%
#670000
0!
0/
0F
#675000
1!
1/
1F
0R
1V
0B
1G
0K
03
1H
1U
0%
0C
1I
0N
02
1J
1T
0$
0D
1L
1P
01
1M
0#
1E
0O
10
1"
#680000
0!
0/
0F
#685000
1!
1/
1F
1R
0V
1B
0G
13
0H
1%
#690000
0!
0/
0F
#695000
1!
1/
1F
0R
1V
0B
1G
1K
03
1H
0U
0%
1C
0I
12
0J
1$
#700000
0!
0/
0F
#705000
1!
1/
1F
1R
0V
1B
0G
13
0H
1%
#710000
0!
0/
0F
#715000
1!
1/
1F
0R
1V
0B
1G
0K
03
1H
1U
0%
0C
1I
1N
02
1J
0T
0$
1D
0L
1Q
0S
11
0M
1#
0N
0P
1T
0E
0D
1O
1L
0Q
1S
00
01
1M
0#
0"
#720000
0!
0/
0F
#725000
1!
1/
1F
1R
0V
1B
0G
13
0H
1%
#730000
0!
0/
0F
#735000
1!
1/
1F
0R
1V
0B
1G
1K
03
1H
0U
0%
1C
0I
12
0J
1$
#740000
0!
0/
0F
#745000
1!
1/
1F
1R
0V
1B
0G
13
0H
1%
#750000
0!
0/
0F
#755000
1!
1/
1F
0R
1V
0B
1G
0K
03
1H
1U
0%
0C
1I
1N
02
1J
0T
0$
1D
0L
11
0M
1#
#760000
0!
0/
0F
#765000
1!
1/
1F
1R
0V
1B
0G
13
0H
1%
#770000
0!
0/
0F
#775000
1!
1/
1F
0R
1V
0B
1G
1K
03
1H
0U
0%
1C
0I
12
0J
1$
#780000
0!
0/
0F
#785000
1!
1/
1F
1R
0V
1B
0G
13
0H
1%
#790000
0!
0/
0F
#795000
1!
1/
1F
0R
1V
0B
1G
0K
03
1H
1U
0%
0C
1I
0N
02
1J
1T
0$
0D
1L
1P
01
1M
0#
1E
0O
10
1"
#800000
0!
0/
0F
#805000
1!
1/
1F
1R
0V
1B
0G
13
0H
1%
#810000
0!
0/
0F
#815000
1!
1/
1F
0R
1V
0B
1G
1K
03
1H
0U
0%
1C
0I
12
0J
1$
#820000
0!
0/
0F
#825000
1!
1/
1F
1R
0V
1B
0G
13
0H
1%
#830000
0!
0/
0F
#835000
1!
1/
1F
0R
1V
0B
1G
0K
03
1H
1U
0%
0C
1I
1N
02
1J
0T
0$
1D
0L
1Q
0S
11
0M
1#
0N
0P
1T
0E
0D
1O
1L
0Q
1S
00
01
1M
0#
0"
#840000
0!
0/
0F
#845000
1!
1/
1F
1R
0V
1B
0G
13
0H
1%
#850000
0!
0/
0F
#855000
1!
1/
1F
0R
1V
0B
1G
1K
03
1H
0U
0%
1C
0I
12
0J
1$
#860000
0!
0/
0F
#865000
1!
1/
1F
1R
0V
1B
0G
13
0H
1%
#870000
0!
0/
0F
#875000
1!
1/
1F
0R
1V
0B
1G
0K
03
1H
1U
0%
0C
1I
1N
02
1J
0T
0$
1D
0L
11
0M
1#
#880000
0!
0/
0F
#885000
1!
1/
1F
1R
0V
1B
0G
13
0H
1%
#890000
0!
0/
0F
#895000
1!
1/
1F
0R
1V
0B
1G
1K
03
1H
0U
0%
1C
0I
12
0J
1$
#900000
0!
0/
0F
#905000
1!
1/
1F
1R
0V
1B
0G
13
0H
1%
#910000
0!
0/
0F
#915000
1!
1/
1F
0R
1V
0B
1G
0K
03
1H
1U
0%
0C
1I
0N
02
1J
1T
0$
0D
1L
1P
01
1M
0#
1E
0O
10
1"
#920000
0!
0/
0F
#925000
1!
1/
1F
1R
0V
1B
0G
13
0H
1%
#930000
0!
0/
0F
#935000
1!
1/
1F
0R
1V
0B
1G
1K
03
1H
0U
0%
1C
0I
12
0J
1$
#940000
0!
0/
0F
#945000
1!
1/
1F
1R
0V
1B
0G
13
0H
1%
#950000
0!
0/
0F
#955000
1!
1/
1F
0R
1V
0B
1G
0K
03
1H
1U
0%
0C
1I
1N
02
1J
0T
0$
1D
0L
1Q
0S
11
0M
1#
0N
0P
1T
0E
0D
1O
1L
0Q
1S
00
01
1M
0#
0"
#960000
0!
0/
0F
#965000
1!
1/
1F
1R
0V
1B
0G
13
0H
1%
#970000
0!
0/
0F
#975000
1!
1/
1F
0R
1V
0B
1G
1K
03
1H
0U
0%
1C
0I
12
0J
1$
#980000
0!
0/
0F
#985000
1!
1/
1F
1R
0V
1B
0G
13
0H
1%
#990000
0!
0/
0F
#995000
1!
1/
1F
0R
1V
0B
1G
0K
03
1H
1U
0%
0C
1I
1N
02
1J
0T
0$
1D
0L
11
0M
1#
