hw7/simulation/qsim/hw7.msim.vcd
$comment
	File created using the following command:
		vcd file hw7.msim.vcd -direction
$end
$date
	Wed Apr 26 16:35:09 2023
$end
$version
	ModelSim Version 10.5b
$end
$timescale
	1ps
$end

$scope module decoder3_8_vhd_vec_tst $end
$var wire 1 ! A [2] $end
$var wire 1 " A [1] $end
$var wire 1 # A [0] $end
$var wire 1 $ EN $end
$var wire 1 % Y [7] $end
$var wire 1 & Y [6] $end
$var wire 1 ' Y [5] $end
$var wire 1 ( Y [4] $end
$var wire 1 ) Y [3] $end
$var wire 1 * Y [2] $end
$var wire 1 + Y [1] $end
$var wire 1 , Y [0] $end

$scope module i1 $end
$var wire 1 - gnd $end
$var wire 1 . vcc $end
$var wire 1 / unknown $end
$var wire 1 0 devoe $end
$var wire 1 1 devclrn $end
$var wire 1 2 devpor $end
$var wire 1 3 ww_devoe $end
$var wire 1 4 ww_devclrn $end
$var wire 1 5 ww_devpor $end
$var wire 1 6 ww_EN $end
$var wire 1 7 ww_A [2] $end
$var wire 1 8 ww_A [1] $end
$var wire 1 9 ww_A [0] $end
$var wire 1 : ww_Y [7] $end
$var wire 1 ; ww_Y [6] $end
$var wire 1 < ww_Y [5] $end
$var wire 1 = ww_Y [4] $end
$var wire 1 > ww_Y [3] $end
$var wire 1 ? ww_Y [2] $end
$var wire 1 @ ww_Y [1] $end
$var wire 1 A ww_Y [0] $end
$var wire 1 B \Y[0]~output_o\ $end
$var wire 1 C \Y[1]~output_o\ $end
$var wire 1 D \Y[2]~output_o\ $end
$var wire 1 E \Y[3]~output_o\ $end
$var wire 1 F \Y[4]~output_o\ $end
$var wire 1 G \Y[5]~output_o\ $end
$var wire 1 H \Y[6]~output_o\ $end
$var wire 1 I \Y[7]~output_o\ $end
$var wire 1 J \EN~input_o\ $end
$var wire 1 K \A[0]~input_o\ $end
$var wire 1 L \A[1]~input_o\ $end
$var wire 1 M \A[2]~input_o\ $end
$var wire 1 N \Mux7~0_combout\ $end
$var wire 1 O \Mux6~0_combout\ $end
$var wire 1 P \Mux5~0_combout\ $end
$var wire 1 Q \Mux4~0_combout\ $end
$var wire 1 R \Mux3~0_combout\ $end
$var wire 1 S \Mux2~0_combout\ $end
$var wire 1 T \Mux1~0_combout\ $end
$var wire 1 U \Mux0~0_combout\ $end
$upscope $end
$upscope $end
$enddefinitions $end
#0
$dumpvars
0$
0-
1.
x/
10
11
12
13
14
15
06
0B
0C
0D
0E
0F
0G
0H
0I
0J
0K
0L
0M
0N
0O
0P
0Q
0R
0S
0T
0U
0!
0"
0#
07
08
09
0:
0;
0<
0=
0>
0?
0@
0A
0%
0&
0'
0(
0)
0*
0+
0,
$end
#10000
1#
19
1K
#20000
0#
1"
09
18
1L
0K
#30000
1#
19
1K
#40000
0#
0"
1!
09
08
17
1M
0L
0K
#50000
1#
19
1K
#60000
0#
1"
09
18
1L
0K
#70000
1#
19
1K
#80000
0#
0"
0!
1$
09
08
07
16
1J
0M
0L
0K
1N
1B
1A
1,
#90000
1#
19
1K
0N
1O
1C
0B
1@
0A
0,
1+
#100000
0#
1"
09
18
1L
0K
0O
1P
1D
0C
1?
0@
0+
1*
#110000
1#
19
1K
0P
1Q
1E
0D
1>
0?
0*
1)
#120000
0#
0"
1!
09
08
17
1M
0L
0K
0Q
1R
1F
0E
1=
0>
0)
1(
#130000
1#
19
1K
0R
1S
1G
0F
1<
0=
0(
1'
#140000
0#
1"
09
18
1L
0K
0S
1T
1H
0G
1;
0<
0'
1&
#150000
1#
19
1K
0T
1U
1I
0H
1:
0;
0&
1%
#160000
0#
0"
0!
0$
09
08
07
06
0J
0M
0L
0K
0U
0I
0:
0%
#170000
1#
19
1K
#180000
0#
1"
09
18
1L
0K
#190000
1#
19
1K
#200000
0#
0"
1!
09
08
17
1M
0L
0K
#210000
1#
19
1K
#220000
0#
1"
09
18
1L
0K
#230000
1#
19
1K
#240000
0#
0"
0!
1$
09
08
07
16
1J
0M
0L
0K
1N
1B
1A
1,
#250000
1#
19
1K
0N
1O
1C
0B
1@
0A
0,
1+
#260000
0#
1"
09
18
1L
0K
0O
1P
1D
0C
1?
0@
0+
1*
#270000
1#
19
1K
0P
1Q
1E
0D
1>
0?
0*
1)
#280000
0#
0"
1!
09
08
17
1M
0L
0K
0Q
1R
1F
0E
1=
0>
0)
1(
#290000
1#
19
1K
0R
1S
1G
0F
1<
0=
0(
1'
#300000
0#
1"
09
18
1L
0K
0S
1T
1H
0G
1;
0<
0'
1&
#310000
1#
19
1K
0T
1U
1I
0H
1:
0;
0&
1%
#320000
0#
0"
0!
0$
09
08
07
06
0J
0M
0L
0K
0U
0I
0:
0%
#330000
1#
19
1K
#340000
0#
1"
09
18
1L
0K
#350000
1#
19
1K
#360000
0#
0"
1!
09
08
17
1M
0L
0K
#370000
1#
19
1K
#380000
0#
1"
09
18
1L
0K
#390000
1#
19
1K
#400000
0#
0"
0!
1$
09
08
07
16
1J
0M
0L
0K
1N
1B
1A
1,
#410000
1#
19
1K
0N
1O
1C
0B
1@
0A
0,
1+
#420000
0#
1"
09
18
1L
0K
0O
1P
1D
0C
1?
0@
0+
1*
#430000
1#
19
1K
0P
1Q
1E
0D
1>
0?
0*
1)
#440000
0#
0"
1!
09
08
17
1M
0L
0K
0Q
1R
1F
0E
1=
0>
0)
1(
#450000
1#
19
1K
0R
1S
1G
0F
1<
0=
0(
1'
#460000
0#
1"
09
18
1L
0K
0S
1T
1H
0G
1;
0<
0'
1&
#470000
1#
19
1K
0T
1U
1I
0H
1:
0;
0&
1%
#480000
0#
0"
0!
0$
09
08
07
06
0J
0M
0L
0K
0U
0I
0:
0%
#490000
1#
19
1K
#500000
0#
1"
09
18
1L
0K
#510000
1#
19
1K
#520000
0#
0"
1!
09
08
17
1M
0L
0K
#530000
1#
19
1K
#540000
0#
1"
09
18
1L
0K
#550000
1#
19
1K
#560000
0#
0"
0!
1$
09
08
07
16
1J
0M
0L
0K
1N
1B
1A
1,
#570000
1#
19
1K
0N
1O
1C
0B
1@
0A
0,
1+
#580000
0#
1"
09
18
1L
0K
0O
1P
1D
0C
1?
0@
0+
1*
#590000
1#
19
1K
0P
1Q
1E
0D
1>
0?
0*
1)
#600000
0#
0"
1!
09
08
17
1M
0L
0K
0Q
1R
1F
0E
1=
0>
0)
1(
#610000
1#
19
1K
0R
1S
1G
0F
1<
0=
0(
1'
#620000
0#
1"
09
18
1L
0K
0S
1T
1H
0G
1;
0<
0'
1&
#630000
1#
19
1K
0T
1U
1I
0H
1:
0;
0&
1%
#640000
0#
0"
0!
0$
09
08
07
06
0J
0M
0L
0K
0U
0I
0:
0%
#650000
1#
19
1K
#660000
0#
1"
09
18
1L
0K
#670000
1#
19
1K
#680000
0#
0"
1!
09
08
17
1M
0L
0K
#690000
1#
19
1K
#700000
0#
1"
09
18
1L
0K
#710000
1#
19
1K
#720000
0#
0"
0!
1$
09
08
07
16
1J
0M
0L
0K
1N
1B
1A
1,
#730000
1#
19
1K
0N
1O
1C
0B
1@
0A
0,
1+
#740000
0#
1"
09
18
1L
0K
0O
1P
1D
0C
1?
0@
0+
1*
#750000
1#
19
1K
0P
1Q
1E
0D
1>
0?
0*
1)
#760000
0#
0"
1!
09
08
17
1M
0L
0K
0Q
1R
1F
0E
1=
0>
0)
1(
#770000
1#
19
1K
0R
1S
1G
0F
1<
0=
0(
1'
#780000
0#
1"
09
18
1L
0K
0S
1T
1H
0G
1;
0<
0'
1&
#790000
1#
19
1K
0T
1U
1I
0H
1:
0;
0&
1%
#800000
0#
0"
0!
0$
09
08
07
06
0J
0M
0L
0K
0U
0I
0:
0%
#810000
1#
19
1K
#820000
0#
1"
09
18
1L
0K
#830000
1#
19
1K
#840000
0#
0"
1!
09
08
17
1M
0L
0K
#850000
1#
19
1K
#860000
0#
1"
09
18
1L
0K
#870000
1#
19
1K
#880000
0#
0"
0!
1$
09
08
07
16
1J
0M
0L
0K
1N
1B
1A
1,
#890000
1#
19
1K
0N
1O
1C
0B
1@
0A
0,
1+
#900000
0#
1"
09
18
1L
0K
0O
1P
1D
0C
1?
0@
0+
1*
#910000
1#
19
1K
0P
1Q
1E
0D
1>
0?
0*
1)
#920000
0#
0"
1!
09
08
17
1M
0L
0K
0Q
1R
1F
0E
1=
0>
0)
1(
#930000
1#
19
1K
0R
1S
1G
0F
1<
0=
0(
1'
#940000
0#
1"
09
18
1L
0K
0S
1T
1H
0G
1;
0<
0'
1&
#950000
1#
19
1K
0T
1U
1I
0H
1:
0;
0&
1%
#960000
0#
0"
0!
0$
09
08
07
06
0J
0M
0L
0K
0U
0I
0:
0%
#970000
1#
19
1K
#980000
0#
1"
09
18
1L
0K
#990000
1#
19
1K
