hw72/simulation/qsim/hw72.msim.vcd
$comment
	File created using the following command:
		vcd file hw72.msim.vcd -direction
$end
$date
	Wed Apr 26 17:08:17 2023
$end
$version
	ModelSim Version 10.5b
$end
$timescale
	1ps
$end

$scope module encoder8_3_vhd_vec_tst $end
$var wire 1 ! A [7] $end
$var wire 1 " A [6] $end
$var wire 1 # A [5] $end
$var wire 1 $ A [4] $end
$var wire 1 % A [3] $end
$var wire 1 & A [2] $end
$var wire 1 ' A [1] $end
$var wire 1 ( A [0] $end
$var wire 1 ) EN $end
$var wire 1 * Y [2] $end
$var wire 1 + Y [1] $end
$var wire 1 , Y [0] $end

$scope module i1 $end
$var wire 1 - gnd $end
$var wire 1 . vcc $end
$var wire 1 / unknown $end
$var wire 1 0 devoe $end
$var wire 1 1 devclrn $end
$var wire 1 2 devpor $end
$var wire 1 3 ww_devoe $end
$var wire 1 4 ww_devclrn $end
$var wire 1 5 ww_devpor $end
$var wire 1 6 ww_EN $end
$var wire 1 7 ww_A [7] $end
$var wire 1 8 ww_A [6] $end
$var wire 1 9 ww_A [5] $end
$var wire 1 : ww_A [4] $end
$var wire 1 ; ww_A [3] $end
$var wire 1 < ww_A [2] $end
$var wire 1 = ww_A [1] $end
$var wire 1 > ww_A [0] $end
$var wire 1 ? ww_Y [2] $end
$var wire 1 @ ww_Y [1] $end
$var wire 1 A ww_Y [0] $end
$var wire 1 B \~QUARTUS_CREATED_ADC1~_CHSEL_bus\ [4] $end
$var wire 1 C \~QUARTUS_CREATED_ADC1~_CHSEL_bus\ [3] $end
$var wire 1 D \~QUARTUS_CREATED_ADC1~_CHSEL_bus\ [2] $end
$var wire 1 E \~QUARTUS_CREATED_ADC1~_CHSEL_bus\ [1] $end
$var wire 1 F \~QUARTUS_CREATED_ADC1~_CHSEL_bus\ [0] $end
$var wire 1 G \~QUARTUS_CREATED_ADC2~_CHSEL_bus\ [4] $end
$var wire 1 H \~QUARTUS_CREATED_ADC2~_CHSEL_bus\ [3] $end
$var wire 1 I \~QUARTUS_CREATED_ADC2~_CHSEL_bus\ [2] $end
$var wire 1 J \~QUARTUS_CREATED_ADC2~_CHSEL_bus\ [1] $end
$var wire 1 K \~QUARTUS_CREATED_ADC2~_CHSEL_bus\ [0] $end
$var wire 1 L \~QUARTUS_CREATED_GND~I_combout\ $end
$var wire 1 M \~QUARTUS_CREATED_UNVM~~busy\ $end
$var wire 1 N \~QUARTUS_CREATED_ADC1~~eoc\ $end
$var wire 1 O \~QUARTUS_CREATED_ADC2~~eoc\ $end
$var wire 1 P \Y[0]~output_o\ $end
$var wire 1 Q \Y[1]~output_o\ $end
$var wire 1 R \Y[2]~output_o\ $end
$var wire 1 S \A[6]~input_o\ $end
$var wire 1 T \A[4]~input_o\ $end
$var wire 1 U \A[1]~input_o\ $end
$var wire 1 V \A[3]~input_o\ $end
$var wire 1 W \A[7]~input_o\ $end
$var wire 1 X \A[5]~input_o\ $end
$var wire 1 Y \Mux2~0_combout\ $end
$var wire 1 Z \EN~input_o\ $end
$var wire 1 [ \A[0]~input_o\ $end
$var wire 1 \ \A[2]~input_o\ $end
$var wire 1 ] \Mux0~0_combout\ $end
$var wire 1 ^ \Mux2~1_combout\ $end
$var wire 1 _ \Mux1~0_combout\ $end
$var wire 1 ` \Mux1~1_combout\ $end
$var wire 1 a \Mux1~2_combout\ $end
$var wire 1 b \Mux0~1_combout\ $end
$var wire 1 c \Mux0~2_combout\ $end
$upscope $end
$upscope $end
$enddefinitions $end
#0
$dumpvars
0)
0-
1.
x/
10
11
12
13
14
15
06
0L
zM
zN
zO
0P
0Q
0R
0S
0T
0U
0V
0W
0X
0Y
0Z
0[
0\
0]
0^
0_
0`
0a
0b
0c
0!
0"
0#
0$
0%
0&
0'
0(
07
08
09
0:
0;
0<
0=
0>
0?
0@
0A
0B
0C
0D
0E
0F
0G
0H
0I
0J
0K
0*
0+
0,
$end
#400
1(
1>
1[
#10000
0(
0>
0[
#10400
1'
1=
1U
1Y
#20000
0'
0=
0U
0Y
#20400
1&
1<
1\
1`
#30000
0&
0<
0\
0`
#30400
1%
1;
1V
1Y
1`
#40000
0%
0;
0V
0Y
0`
#40400
1$
1:
1T
1b
#50000
0$
0:
0T
0b
#50400
1#
19
1X
1Y
1b
#60000
0#
09
0X
0Y
0b
#60400
1"
18
1S
1`
1b
#70000
0"
08
0S
0`
0b
#70400
1!
17
1W
1Y
1`
1b
#80000
0!
1)
07
16
1Z
0W
0Y
0`
0b
1]
1_
#80400
1(
1>
1[
0]
0_
#90000
0(
0>
0[
1]
1_
#90400
1'
1=
1U
1Y
0_
1^
1P
1A
1,
#100000
0'
0=
0U
0Y
1_
0^
0P
0A
0,
#100400
1&
1<
1\
0]
1`
1a
1Q
1@
1+
#110000
0&
0<
0\
1]
0`
0a
0Q
0@
0+
#110400
1%
1;
1V
1Y
1`
1a
1^
1P
1Q
1A
1@
1,
1+
#120000
0%
0;
0V
0Y
0`
0a
0^
0P
0Q
0A
0@
0,
0+
#120400
1$
1:
1T
0_
1b
1c
1R
1?
1*
#130000
0$
0:
0T
1_
0b
0c
0R
0?
0*
#130400
1#
19
1X
1Y
1b
1c
1^
1P
1R
1A
1?
1,
1*
#140000
0#
09
0X
0Y
0b
0c
0^
0P
0R
0A
0?
0,
0*
#140400
1"
18
1S
1`
1b
1c
1a
1Q
1R
1@
1?
1+
1*
#150000
0"
08
0S
0`
0b
0c
0a
0Q
0R
0@
0?
0+
0*
#150400
1!
17
1W
1Y
1`
1b
1c
1a
1^
1P
1Q
1R
1A
1@
1?
1,
1+
1*
#160000
0!
0)
07
06
0Z
0W
0Y
0`
0b
0]
0_
0c
0a
0^
0P
0Q
0R
0A
0@
0?
0,
0+
0*
#160400
1(
1>
1[
#170000
0(
0>
0[
#170400
1'
1=
1U
1Y
#180000
0'
0=
0U
0Y
#180400
1&
1<
1\
1`
#190000
0&
0<
0\
0`
#190400
1%
1;
1V
1Y
1`
#200000
0%
0;
0V
0Y
0`
#200400
1$
1:
1T
1b
#210000
0$
0:
0T
0b
#210400
1#
19
1X
1Y
1b
#220000
0#
09
0X
0Y
0b
#220400
1"
18
1S
1`
1b
#230000
0"
08
0S
0`
0b
#230400
1!
17
1W
1Y
1`
1b
#240000
0!
1)
07
16
1Z
0W
0Y
0`
0b
1]
1_
#240400
1(
1>
1[
0]
0_
#250000
0(
0>
0[
1]
1_
#250400
1'
1=
1U
1Y
0_
1^
1P
1A
1,
#260000
0'
0=
0U
0Y
1_
0^
0P
0A
0,
#260400
1&
1<
1\
0]
1`
1a
1Q
1@
1+
#270000
0&
0<
0\
1]
0`
0a
0Q
0@
0+
#270400
1%
1;
1V
1Y
1`
1a
1^
1P
1Q
1A
1@
1,
1+
#280000
0%
0;
0V
0Y
0`
0a
0^
0P
0Q
0A
0@
0,
0+
#280400
1$
1:
1T
0_
1b
1c
1R
1?
1*
#290000
0$
0:
0T
1_
0b
0c
0R
0?
0*
#290400
1#
19
1X
1Y
1b
1c
1^
1P
1R
1A
1?
1,
1*
#300000
0#
09
0X
0Y
0b
0c
0^
0P
0R
0A
0?
0,
0*
#300400
1"
18
1S
1`
1b
1c
1a
1Q
1R
1@
1?
1+
1*
#310000
0"
08
0S
0`
0b
0c
0a
0Q
0R
0@
0?
0+
0*
#310400
1!
17
1W
1Y
1`
1b
1c
1a
1^
1P
1Q
1R
1A
1@
1?
1,
1+
1*
#320000
0!
0)
07
06
0Z
0W
0Y
0`
0b
0]
0_
0c
0a
0^
0P
0Q
0R
0A
0@
0?
0,
0+
0*
#320400
1(
1>
1[
#330000
0(
0>
0[
#330400
1'
1=
1U
1Y
#340000
0'
0=
0U
0Y
#340400
1&
1<
1\
1`
#350000
0&
0<
0\
0`
#350400
1%
1;
1V
1Y
1`
#360000
0%
0;
0V
0Y
0`
#360400
1$
1:
1T
1b
#370000
0$
0:
0T
0b
#370400
1#
19
1X
1Y
1b
#380000
0#
09
0X
0Y
0b
#380400
1"
18
1S
1`
1b
#390000
0"
08
0S
0`
0b
#390400
1!
17
1W
1Y
1`
1b
#400000
0!
1)
07
16
1Z
0W
0Y
0`
0b
1]
1_
#400400
1(
1>
1[
0]
0_
#410000
0(
0>
0[
1]
1_
#410400
1'
1=
1U
1Y
0_
1^
1P
1A
1,
#420000
0'
0=
0U
0Y
1_
0^
0P
0A
0,
#420400
1&
1<
1\
0]
1`
1a
1Q
1@
1+
#430000
0&
0<
0\
1]
0`
0a
0Q
0@
0+
#430400
1%
1;
1V
1Y
1`
1a
1^
1P
1Q
1A
1@
1,
1+
#440000
0%
0;
0V
0Y
0`
0a
0^
0P
0Q
0A
0@
0,
0+
#440400
1$
1:
1T
0_
1b
1c
1R
1?
1*
#450000
0$
0:
0T
1_
0b
0c
0R
0?
0*
#450400
1#
19
1X
1Y
1b
1c
1^
1P
1R
1A
1?
1,
1*
#460000
0#
09
0X
0Y
0b
0c
0^
0P
0R
0A
0?
0,
0*
#460400
1"
18
1S
1`
1b
1c
1a
1Q
1R
1@
1?
1+
1*
#470000
0"
08
0S
0`
0b
0c
0a
0Q
0R
0@
0?
0+
0*
#470400
1!
17
1W
1Y
1`
1b
1c
1a
1^
1P
1Q
1R
1A
1@
1?
1,
1+
1*
#480000
0!
0)
07
06
0Z
0W
0Y
0`
0b
0]
0_
0c
0a
0^
0P
0Q
0R
0A
0@
0?
0,
0+
0*
#480400
1(
1>
1[
#490000
0(
0>
0[
#490400
1'
1=
1U
1Y
#500000
0'
0=
0U
0Y
#500400
1&
1<
1\
1`
#510000
0&
0<
0\
0`
#510400
1%
1;
1V
1Y
1`
#520000
0%
0;
0V
0Y
0`
#520400
1$
1:
1T
1b
#530000
0$
0:
0T
0b
#530400
1#
19
1X
1Y
1b
#540000
0#
09
0X
0Y
0b
#540400
1"
18
1S
1`
1b
#550000
0"
08
0S
0`
0b
#550400
1!
17
1W
1Y
1`
1b
#560000
0!
1)
07
16
1Z
0W
0Y
0`
0b
1]
1_
#560400
1(
1>
1[
0]
0_
#570000
0(
0>
0[
1]
1_
#570400
1'
1=
1U
1Y
0_
1^
1P
1A
1,
#580000
0'
0=
0U
0Y
1_
0^
0P
0A
0,
#580400
1&
1<
1\
0]
1`
1a
1Q
1@
1+
#590000
0&
0<
0\
1]
0`
0a
0Q
0@
0+
#590400
1%
1;
1V
1Y
1`
1a
1^
1P
1Q
1A
1@
1,
1+
#600000
0%
0;
0V
0Y
0`
0a
0^
0P
0Q
0A
0@
0,
0+
#600400
1$
1:
1T
0_
1b
1c
1R
1?
1*
#610000
0$
0:
0T
1_
0b
0c
0R
0?
0*
#610400
1#
19
1X
1Y
1b
1c
1^
1P
1R
1A
1?
1,
1*
#620000
0#
09
0X
0Y
0b
0c
0^
0P
0R
0A
0?
0,
0*
#620400
1"
18
1S
1`
1b
1c
1a
1Q
1R
1@
1?
1+
1*
#630000
0"
08
0S
0`
0b
0c
0a
0Q
0R
0@
0?
0+
0*
#630400
1!
17
1W
1Y
1`
1b
1c
1a
1^
1P
1Q
1R
1A
1@
1?
1,
1+
1*
#640000
0!
0)
07
06
0Z
0W
0Y
0`
0b
0]
0_
0c
0a
0^
0P
0Q
0R
0A
0@
0?
0,
0+
0*
#640400
1(
1>
1[
#650000
0(
0>
0[
#650400
1'
1=
1U
1Y
#660000
0'
0=
0U
0Y
#660400
1&
1<
1\
1`
#670000
0&
0<
0\
0`
#670400
1%
1;
1V
1Y
1`
#680000
0%
0;
0V
0Y
0`
#680400
1$
1:
1T
1b
#690000
0$
0:
0T
0b
#690400
1#
19
1X
1Y
1b
#700000
0#
09
0X
0Y
0b
#700400
1"
18
1S
1`
1b
#710000
0"
08
0S
0`
0b
#710400
1!
17
1W
1Y
1`
1b
#720000
0!
1)
07
16
1Z
0W
0Y
0`
0b
1]
1_
#720400
1(
1>
1[
0]
0_
#730000
0(
0>
0[
1]
1_
#730400
1'
1=
1U
1Y
0_
1^
1P
1A
1,
#740000
0'
0=
0U
0Y
1_
0^
0P
0A
0,
#740400
1&
1<
1\
0]
1`
1a
1Q
1@
1+
#750000
0&
0<
0\
1]
0`
0a
0Q
0@
0+
#750400
1%
1;
1V
1Y
1`
1a
1^
1P
1Q
1A
1@
1,
1+
#760000
0%
0;
0V
0Y
0`
0a
0^
0P
0Q
0A
0@
0,
0+
#760400
1$
1:
1T
0_
1b
1c
1R
1?
1*
#770000
0$
0:
0T
1_
0b
0c
0R
0?
0*
#770400
1#
19
1X
1Y
1b
1c
1^
1P
1R
1A
1?
1,
1*
#780000
0#
09
0X
0Y
0b
0c
0^
0P
0R
0A
0?
0,
0*
#780400
1"
18
1S
1`
1b
1c
1a
1Q
1R
1@
1?
1+
1*
#790000
0"
08
0S
0`
0b
0c
0a
0Q
0R
0@
0?
0+
0*
#790400
1!
17
1W
1Y
1`
1b
1c
1a
1^
1P
1Q
1R
1A
1@
1?
1,
1+
1*
#800000
0!
0)
07
06
0Z
0W
0Y
0`
0b
0]
0_
0c
0a
0^
0P
0Q
0R
0A
0@
0?
0,
0+
0*
#800400
1(
1>
1[
#810000
0(
0>
0[
#810400
1'
1=
1U
1Y
#820000
0'
0=
0U
0Y
#820400
1&
1<
1\
1`
#830000
0&
0<
0\
0`
#830400
1%
1;
1V
1Y
1`
#840000
0%
0;
0V
0Y
0`
#840400
1$
1:
1T
1b
#850000
0$
0:
0T
0b
#850400
1#
19
1X
1Y
1b
#860000
0#
09
0X
0Y
0b
#860400
1"
18
1S
1`
1b
#870000
0"
08
0S
0`
0b
#870400
1!
17
1W
1Y
1`
1b
#880000
0!
1)
07
16
1Z
0W
0Y
0`
0b
1]
1_
#880400
1(
1>
1[
0]
0_
#890000
0(
0>
0[
1]
1_
#890400
1'
1=
1U
1Y
0_
1^
1P
1A
1,
#900000
0'
0=
0U
0Y
1_
0^
0P
0A
0,
#900400
1&
1<
1\
0]
1`
1a
1Q
1@
1+
#910000
0&
0<
0\
1]
0`
0a
0Q
0@
0+
#910400
1%
1;
1V
1Y
1`
1a
1^
1P
1Q
1A
1@
1,
1+
#920000
0%
0;
0V
0Y
0`
0a
0^
0P
0Q
0A
0@
0,
0+
#920400
1$
1:
1T
0_
1b
1c
1R
1?
1*
#930000
0$
0:
0T
1_
0b
0c
0R
0?
0*
#930400
1#
19
1X
1Y
1b
1c
1^
1P
1R
1A
1?
1,
1*
#940000
0#
09
0X
0Y
0b
0c
0^
0P
0R
0A
0?
0,
0*
#940400
1"
18
1S
1`
1b
1c
1a
1Q
1R
1@
1?
1+
1*
#950000
0"
08
0S
0`
0b
0c
0a
0Q
0R
0@
0?
0+
0*
#950400
1!
17
1W
1Y
1`
1b
1c
1a
1^
1P
1Q
1R
1A
1@
1?
1,
1+
1*
#960000
0!
0)
07
06
0Z
0W
0Y
0`
0b
0]
0_
0c
0a
0^
0P
0Q
0R
0A
0@
0?
0,
0+
0*
#960400
1(
1>
1[
#970000
0(
0>
0[
#970400
1'
1=
1U
1Y
#980000
0'
0=
0U
0Y
#980400
1&
1<
1\
1`
#990000
0&
0<
0\
0`
#990400
1%
1;
1V
1Y
1`
